<?xml version="1.0" encoding="utf-8"?>
<!-- Generator: Adobe Illustrator 21.0.2, SVG Export Plug-In . SVG Version: 6.00 Build 0)  -->
<svg version="1.1" id="Слой_1" xmlns="http://www.w3.org/2000/svg" xmlns:xlink="http://www.w3.org/1999/xlink" x="0px" y="0px"
	 viewBox="0 0 4.901 8.924" style="enable-background:new 0 0 4.901 8.924;" xml:space="preserve">
<style type="text/css">
	.st0{fill:#73B645;}
	.st1{fill:none;}
	.st2{fill:#73B645;}
	.st3{fill-rule:evenodd;clip-rule:evenodd;fill:#73B645;}
	.st4{fill-rule:evenodd;clip-rule:evenodd;fill:#73B645;}
	.st5{fill:#73B6450;}
	.st6{fill-rule:evenodd;clip-rule:evenodd;fill:#73B645;}
	.st7{fill-rule:evenodd;clip-rule:evenodd;fill:#73B645;}
	.st8{fill:#73B645;}
	.st9{fill:#73B645;}
</style>
<polygon class="st6" points="4.901,4.459 0.442,0 0,0.442 4.02,4.462 0,8.482 0.442,8.924 4.901,4.464 4.899,4.462 "/>
</svg>
