[
    [{
        "day": 1,
        "label": "Новый год",
        "color": "orange"
    },
        {
            "day": 6,
            "label": "Сочельник"
        },
        {
            "day": 7,
            "label": "Рождество Христово",
            "color": "orange"
        },
        {
            "day": 11,
            "label": "День заповедников"
        },
        {
            "day": 12,
            "label": "День работника прокуратуры РФ"
        },
        {
            "day": 13,
            "label": "День Российской печати"
        },
        {
            "day": 14,
            "label": "Старый Новый год"
        },
        {
            "day": 21,
            "label": "День объятий",
            "color": "blue"
        },
        {
            "day": 21,
            "label": "День инженерных войск",
            "color": "orange"
        },
        {
            "day": 25,
            "label": "День студента (Татьянин день)"
        },
        {
            "day": 26,
            "label": "Международный день таможенника"
        },
        {
            "day": 27,
            "label": "День памяти жертв Холокоста"
        },
        {
            "day": 27,
            "label": "День снятия блокады Ленинграда"
        },
        {
            "day": 29,
            "label": "День рождения А.П. Чехова 1860-1904"
        },
        {
            "day": 31,
            "label": "Международный день ювелира"
        }
    ],
    [
        {
            "day": 2,
            "label": "День сурка",
            "description": "Народный праздник в Канаде и в США, но благодаря одноименному фильму с Биллом Мюрреем стал популярным и в России.",
            "images": [
                "/images/holidays/02/groundhogDay-1.jpg",
                "/images/holidays/02/groundhogDay-2.jpg",
                "/images/holidays/02/groundhogDay-2.jpg"
            ]
        },
        {
            "day": 2,
            "label": "Окончание Сталинградской битвы",
            "description": "Окончание Сталинградской битвы. Эта победа Красной армии, положила начало «коренному перелому» не только в Великой Отечественной, но и во всей Второй мировой войне.",
            "images": [
                "/images/holidays/02/stalingrad-1.jpg",
                "/images/holidays/02/stalingrad-2.jpg",
                "/images/holidays/02/stalingrad-3.jpg"
            ]
        },
        {
            "day": 4,
            "label": "Всемирный День борьбы с раковыми заболеваниями",
            "images": [
                "/images/holidays/02/cancers-1.jpg",
                "/images/holidays/02/cancers-2.jpg",
                "/images/holidays/02/cancers-3.jpg"
            ]
        },
        {
            "day": 5,
            "label": "Китайский Новый год",
            "images": [
                "/images/holidays/02/chineseNewYear-1.jpg",
                "/images/holidays/02/chineseNewYear-2.jpg",
                "/images/holidays/02/chineseNewYear-3.jpg"
            ]
        },
        {
            "day": 6,
            "label": "Международный день бармена",
            "images": [
                "/images/holidays/02/barman-1.jpg",
                "/images/holidays/02/barman-2.jpg",
                "/images/holidays/02/barman-3.jpg"
            ]
        },
        {
            "day": 7,
            "label": "День Российского бизнес-образования",
            "description": "День Российского бизнес-образования призван напомнить, что учиться никогда не поздно и что лучшие инвестиции — это инвестиции в себя.",
            "images": [
                "/images/holidays/02/businessEducation-1.jpg",
                "/images/holidays/02/businessEducation-2.jpg",
                "/images/holidays/02/businessEducation-3.jpg"
            ]
        },
        {
            "day": 8,
            "label": "День российской науки",
            "description": "В этот день по указу Петра I была образована Российская академия наук. Сегодня среди приоритетных направлений – искусственный интеллект, генетика, новые материалы, источники энергии, цифровые технологии.",
            "images": [
                "/images/holidays/02/dayofRussianScience-1.jpg",
                "/images/holidays/02/dayofRussianScience-2.jpg",
                "/images/holidays/02/dayofRussianScience-3.jpg"
            ]
        },
        {
            "day": 8,
            "label": "День военного типографа в России",
            "images": [
                "/images/holidays/02/DayoftheMilitaryTypographer-1.jpg",
                "/images/holidays/02/DayoftheMilitaryTypographer-2.jpg",
                "/images/holidays/02/DayoftheMilitaryTypographer-3.jpg"
            ]
        },
        {
            "day": 9,
            "label": "Всемирный день безопасного Интернета",
            "description": "Цель праздника – информировать людей об ответственном и безопасном использовании Интернета.",
            "images": [
                "/images/holidays/02/worldSaferInternetDay-1.jpg",
                "/images/holidays/02/worldSaferInternetDay-2.jpg",
                "/images/holidays/02/worldSaferInternetDay-3.jpg"
            ]
        },
        {
            "day": 9,
            "label": "Международный день стоматолога",
            "images": [
                "/images/holidays/02/InternationalDayofTheDentist-1.jpg",
                "/images/holidays/02/InternationalDayofTheDentist-2.jpg",
                "/images/holidays/02/InternationalDayofTheDentist-3.jpg"
            ]
        },
        {
            "day": 9,
            "label": "День гражданской авиации в России",
            "images": [
                "/images/holidays/02/civilAviationDay-1.jpg",
                "/images/holidays/02/civilAviationDay-2.jpg",
                "/images/holidays/02/civilAviationDay-3.jpg"
            ]
        },
        {
            "day": 9,
            "label": "День зимних видов спорта в России",
            "images": [
                "/images/holidays/02/winterSportsDay-1.jpg",
                "/images/holidays/02/winterSportsDay-2.jpg",
                "/images/holidays/02/winterSportsDay-3.jpg"
            ]
        },
        {
            "day": 10,
            "label": "День дипломатического работника",
            "images": [
                "/images/holidays/02/diplomaticDay-1.jpg",
                "/images/holidays/02/diplomaticDay-2.jpg",
                "/images/holidays/02/diplomaticDay-3.jpg"
            ]
        },
        {
            "day": 11,
            "label": "Всемирный день больного"
        },
        {
            "day": 11,
            "label": "Международный день женщин и девушек в науке",
            "description": "Один из новых праздников ООН – Международный день женщин и девочек в науке, напоминающий о важной роли женщин в исследованиях и о равноправии в науке, отмечается 11 февраля, в 2021 году — в шестой раз.",
            "images": [
                "/images/holidays/02/internationalDayofWomeninScience-1.jpg",
                "/images/holidays/02/internationalDayofWomeninScience-2.jpg",
                "/images/holidays/02/internationalDayofWomeninScience-3.jpg"
            ]
        },
        {
            "day": 11,
            "label": "День волшебных сказок на ночь",
            "images": [
                "/images/holidays/02/AdayoffairyTalesfortheNight-1.jpg",
                "/images/holidays/02/AdayoffairyTalesfortheNight-2.jpg",
                "/images/holidays/02/AdayoffairyTalesfortheNight-3.jpg"
            ]
        },
        {
            "day": 12,
            "label": "Международный день брачных агентств",
            "images": [
                "/images/holidays/02/internationalDayofMarriageAgencies-1.jpg",
                "/images/holidays/02/internationalDayofMarriageAgencies-2.jpg",
                "/images/holidays/02/internationalDayofMarriageAgencies-3.jpg"
            ]
        },
        {
            "day": 13,
            "label": "Всемирный день радио",
            "images": [
                "/images/holidays/02/worldRadioDay-1.jpg",
                "/images/holidays/02/worldRadioDay-2.jpg",
                "/images/holidays/02/worldRadioDay-3.jpg"
            ]
        },
        {
            "day": 14,
            "label": "Международный день дарения книг",
            "description": "14 февраля отмечают не только влюбленные, но и любители чтения.\nЭтот праздник появился в 2012 году и призван объединять всех, кто дарит книги детям и прививает им любовь к чтению."
        },
        {
            "day": 14,
            "label": "День Святого Валентина"
        },
        {
            "day": 14,
            "label": "День компьютерщика и программиста"
        },
        {
            "day": 17,
            "label": "День российских студенческих отрядов",
            "description": "Начиная с 2016 года, этот день стал официальным праздником Российских студенческих отрядов. Участие в студенческом отряде позволяет многим решить определенные финансовые проблемы, заработав деньги в свободное от учёбы время."
        },
        {
            "day": 19,
            "label": "Всемирный день защиты морских млекопитающих",
            "description": "Этот день — это привлечение внимания общественности, представителей власти и всего человечества к вопросам защиты уникальных видов морских млекопитающих, которых к настоящему времени на нашей планете сохранилось всего 119 видов."
        },
        {
            "day": 20,
            "label": "Всемирный день социальной справедливости",
            "description": "Социальная справедливость является основополагающим принципом мирного и благополучного сосуществования как в самих странах, так и между различными странами. Мы поддерживаем принципы социальной справедливости, поощряя равенство между женщинами и мужчинами или права коренных народов и мигрантов."
        },
        {
            "day": 21,
            "label": "Международный день родного языка",
            "description": "Международный день родного языка был провозглашен Генеральной конференцией ЮНЕСКО в ноябре 1999 года и отмечается каждый год с февраля 2000 года для содействия языковому и культурному разнообразию и многоязычию."
        },
        {
            "day": 21,
            "label": "Всемирный день экскурсовода"
        },
        {
            "day": 23,
            "label": "День защитника Отечества",
            "color": "orange"
        },
        {
            "day": 24,
            "label": "Церемония вручения наград премии «Оскар»"
        },
        {
            "day": 27,
            "label": "Международный день полярного медведя",
            "description": "Основной целью этого дня является распространение информации о полярном медведе и привлечение внимания общества к необходимости охраны самого крупного наземного хищника планеты."
        }
    ],
    [
        {
            "day": 1,
            "label": "День прихода весны"
        },
        {
            "day": 1,
            "label": "Всемирный день комплимента"
        },
        {
            "day": 1,
            "label": "День кошек в России"
        },
        {
            "day": 2,
            "label": "Всемирный день компакт-диска"
        },
        {
            "day": 3,
            "label": "Всемирный день чтения вслух",
            "description": "Каждый год в первую среду марта по инициативе кампании LitWorld проводится Всемирный день чтения вслух (World Read Aloud Day). \nЦель – показать чтение как способ взаимодействия с окружающим миром и как возможность передачи своих эмоций другому человеку вместе со звучащим словом."
        },
        {
            "day": 3,
            "label": "Всемирный день писателя и дикой природы"
        },
        {
            "day": 4,
            "label": "Всемирный день грамматики"
        },
        {
            "day": 5,
            "label": "День выключенных гаджетов",
            "description": "День выключенных гаджетов отмечается во многих странах, в том числе и в России. Основная его цель: протест против виртуальной зависимости. Традиционное празднование последователей движения состоит в отключении мобильного телефона, ноутбуков, компьютеров, интернета и т. д. Ровно сутки люди посвящают себя общению с друзьями и близкими."
        },
        {
            "day": 6,
            "label": "Международный день зубного врача"
        },
        {
            "day": 6,
            "label": "День рождения Михаила Жванецкого"
        },
        {
            "day": 7,
            "label": "Международный день детского телевидения и радиовещания"
        },
        {
            "day": 8,
            "label": "Международный женский день",
            "description": "Международный женский день празднуют во всем мире. В этот день отмечаются достижения женщин вне зависимости от национальных границ или этнических, языковых, культурных, экономических и политических различий.",
            "color": "orange"
        },
        {
            "day": 9,
            "label": "День рождения Юрия Гагарина"
        },
        {
            "day": 12,
            "label": "Всемирный день против кибер-цензуры",
            "description": "Каждый год в Интернете проводится мероприятие под названием «Всемирный день борьбы с кибер-цензурой». Оно было организовано с целью поддержки единого Интернета без ограничений и подчеркивания того, как правительства во всем мире сдерживают и подвергают цензуре свободу слова в Интернете."
        },
        {
            "day": 12,
            "label": "Всемирный день посадки цветов"
        },
        {
            "day": 14,
            "label": "Прощёное воскресенье",
            "description": "Это последний день Масленицы и последний день перед началом Великого поста. Основная цель праздника – пробудить в людях светлые и искренние чувства, стремление к добрым делам."
        },
        {
            "day": 15,
            "label": "Всемирный день защиты прав потребителей",
            "description": "Этот день без сомнения касается каждого гражданина, ведь все мы являемся потребителями.  \nСогласно кодексу Всемирной организации союзов потребителей каждый потребитель имеет право на: информацию, безопасность, осознанный выбор, быть услышанным, возмещение ущерба, потребительское образование, удовлетворение базовых потребностей, здоровую окружающую среду."
        },
        {
            "day": 16,
            "label": "День без селфи"
        },
        {
            "day": 17,
            "label": "День святого Патрика",
            "description": "Этот день уже давно приобрел большую популярность и перешагнул через границы Изумрудного острова. Празднования в честь Св. Патрика проходят по всему миру. В этот день каждый может стать ирландцем, если только захочет - так гласит распространенная шутка."
        },
        {
            "day": 19,
            "label": "Международный день клиента",
            "description": "Цель этого праздника для производителей товаров и услуг в самых разных сферах — привлечение новых и поощрение постоянных клиентов. В этот день владельцы бизнеса во всем мире имеют возможность выразить признательность своим потребителям, отблагодарив их за сотрудничество. Как именно — каждый решает сам: это могут быть сувениры, маленькие подарки, скидки или проведение акций и праздничных мероприятий."
        },
        {
            "day": 20,
            "label": "Международный день счастья"
        },
        {
            "day": 20,
            "label": "День Земли",
            "description": "Дата 20 марта была выбрана и официально утверждена в 1971 году ООН для Дня Земли именно потому, что на это время выпадает день весеннего равноденствия, когда меняется биологический ритм планеты, и она переходит на новый виток своего развития. В обращении ООН говорится: «День Земли — это специальное время, которое предназначено, чтобы привлечь внимание всех людей к осознанию планеты Земля как их общего дома, ощутить нашу всеземную общность и взаимную зависимость друг от друга»."
        },
        {
            "day": 20,
            "label": "Всемирный день театра для детей и молодёжи"
        },
        {
            "day": 21,
            "label": "Всемирный день поэзии"
        },
        {
            "day": 21,
            "label": "День рождения Twitter",
            "description": "Twitter занимает одну из первых строчек в рейтинге популярных социальных сетей. Он настолько популярен, что некоторые твиты публикуются космонавтами из космоса. Астронавты постоянно выкладывают селфи, которые делают в полёте, а\nсоциологические исследования показали, что 90% правительств разных государств имеют свои аккаунты."
        },
        {
            "day": 21,
            "label": "Международный день лесов",
            "description": "Международный день лесов создан как глобальная платформа для людей, заинтересованных в сохранении леса и смягчении последствий глобального изменения климата, а также для обмена мнениями и кооперативной работы людей в этих направлениях."
        },
        {
            "day": 22,
            "label": "Всемирный день водных ресурсов",
            "description": "Всемирный день водных ресурсов отмечается ежегодно 22 марта для привлечения внимания к важности пресноводных ресурсов и пропаганды устойчивого управления ими. Этот День предоставляет возможность подробнее узнать о проблемах, связанных с водными ресурсами, вдохновиться рассказать о них другим и принять меры для изменения ситуации к лучшему."
        },
        {
            "day": 23,
            "label": "День мужской солидарности"
        },
        {
            "day": 25,
            "label": "День работника культуры России",
            "description": "Профессиональный праздник работников культуры РФ. В более широком смысле под работниками культуры подразумеваются люди творческих профессий, деятели искусства, а также хранители и популяризаторы культурного наследия."
        },
        {
            "day": 27,
            "label": "Всемирный день театра"
        },
        {
            "day": 28,
            "label": "Всемирный день историка"
        },
        {
            "day": 29,
            "label": "День самопознания",
            "description": "Лучший день для того, чтобы начать пусть собственного самопознания, если вдруг вы все ещё не решились на такой ответственный шаг в своей жизни. Ведь самопознание — это изучение личностью собственных психических и физических особенностей, осмысление самого себя."
        },
        {
            "day": 29,
            "label": "День владельцев малого бизнеса"
        },
        {
            "day": 30,
            "label": "День ремесленника"
        },
        {
            "day": 30,
            "label": "День рождения Винсента ван Гога",
            "description": "День рождения нидерландского художник-постимпрессиониста, чьи работы оказали вневременное влияние на живопись XX века. За десять с небольшим лет он создал более 2100 произведений, включая около 860 картин маслом."
        },
        {
            "day": 31,
            "label": "Международный день резервного копирования (день бэкапа)",
            "description": "В жизни любого человека хоть раз случалась ситуация, когда терялись данные с электронного носителя. Для того, чтобы предотвратить потерю информации, был создан праздник — День бэкапа. Позаботьтесь в этот день о безопасности своих данных, сделайте резервное копирование!"
        }
    ],
    [
        {
            "day": 1,
            "label": "День смеха"
        },
        {
            "day": 1,
            "label": "Международный день птиц"
        },
        {
            "day": 2,
            "label": "Международный день детской книги"
        },
        {
            "day": 3,
            "label": "Международный день детской книги"
        },
        {
            "day": 4,
            "label": "День веб-мастера"
        },
        {
            "day": 5,
            "label": "Международный день нравственности",
            "description": "25 июля 2019 года Генеральная Ассамблея ООН приняла Резолюцию, согласно которой была учреждена памятная дата, отмечаемая ежегодно 5 апреля. Нравственность, по сути, представляет собой разновидность социальных норм, призванных регулировать отношения между людьми в обществе."
        },
        {
            "day": 6,
            "label": "День русской народной сказки"
        },
        {
            "day": 6,
            "label": "Международный день спорта на благо развития и мира",
            "description": "Призван побуждать людей к активным действиям, укреплять солидарность, командный дух и повышать осведомленность о COVID-19."
        },
        {
            "day": 7,
            "label": "День Рождения Рунета",
            "description": "7 апреля 1994 года для России был зарегистрирован домен — . Ru — и внесён в международную базу данных национальных доменов верхнего уровня."
        },
        {
            "day": 7,
            "label": "Всемирный день здоровья"
        },
        {
            "day": 8,
            "label": "День Российской анимации",
            "description": "Именно (26 марта) 8 апреля 1912 года состоялась премьера первого российского мультипликационного фильма – «Прекрасная Люканида». Широкая публика впервые в истории увидела анимационную картину. Это была работа биолога Владислава Старевича про несчастную любовь из жизни насекомых."
        },
        {
            "day": 10,
            "label": "День братьев и сестёр"
        },
        {
            "day": 10,
            "label": "Международный день движения сопротивления",
            "description": "Праздник посвящен всем, кто противодействовал фашистам во время Второй мировой войны (1939-1945) на территориях, оккупированных войсками Третьего рейха."
        },
        {
            "day": 12,
            "label": "Всемирный день авиации и космонавтики",
            "description": "День космонавтики отмечается ежегодно 12 апреля – в день, когда Юрий Гагарин на космическом корабле «Восток» впервые в истории человечества совершил орбитальный облет Земли."
        },
        {
            "day": 13,
            "label": "Всемирный день рок-н-ролла"
        },
        {
            "day": 15,
            "label": "Международный день культуры",
            "description": "Он был учреждён в честь принятия 15 апреля 1935 года международного договора «Об охране художественных и научных учреждений и исторических памятников», который стал известен в международно-правовой практике как Пакт Рериха."
        },
        {
            "day": 15,
            "label": "День экологических знаний",
            "description": "Экологическое образование является системообразующим фактором, который формирует мировоззрение современного человека, способного осознать негативные последствия своих воздействий на окружающую среду."
        },
        {
            "day": 15,
            "label": "День путешествий налегке"
        },
        {
            "day": 16,
            "label": "Всемирный день голоса",
            "description": "16 апреля отмечается праздник, название которого первоначально вызывает ассоциации на тему вокальных способностей человека. В действительности этот праздник, идея отмечать который появилась в конце 1990-х годов, посвящён феномену голоса человека и его роли в жизни людей."
        },
        {
            "day": 18,
            "label": "Международный день памятников и исторических мест",
            "description": "Праздник отмечается с 1984 года с целью привлечь внимание общественности к вопросам защиты и сохранения всемирного культурного наследия. Также он даёт возможность больше узнать о многообразии мирового наследия и о силах, которые прикладываются для его защиты и сохранения."
        },
        {
            "day": 18,
            "label": "День воинской славы России"
        },
        {
            "day": 18,
            "label": "Всемирный день радиолюбителя"
        },
        {
            "day": 19,
            "label": "День подснежника"
        },
        {
            "day": 19,
            "label": "День Российской полиграфии"
        },
        {
            "day": 20,
            "label": "Международный день цирка"
        },
        {
            "day": 21,
            "label": "День главбуха в России"
        },
        {
            "day": 22,
            "label": "Международный день Матери-Земли",
            "description": "«Мать-Земля» является общепринятым названием планеты Земля в ряде стран и регионов, что отражает взаимозависимость, существующую между человеком, другими живыми существами и планетой, которую мы все населяем. Земля и её экосистемы являются нашим домом, а для достижения справедливого баланса между экономическими, социальными и экологическими потребностями нынешнего и будущих поколений необходимо содействовать гармонии с природой и планетой Земля."
        },
        {
            "day": 23,
            "label": "Всемирный день книги и авторского права"
        },
        {
            "day": 24,
            "label": "Международный день солидарности молодёжи",
            "description": "Этот день связан с борьбой против колониализма, и выступает за мирное существование народа. Главная цель этого праздника заключается в поднятии государственной молодёжной политики, решение проблем социальной защиты молодёжи, организации культуры и досуга."
        },
        {
            "day": 24,
            "label": "Всемирный день защиты лабораторных животных"
        },
        {
            "day": 24,
            "label": "Международный день секретаря"
        },
        {
            "day": 25,
            "label": "Международный день дочери"
        },
        {
            "day": 25,
            "label": "Всемирный день пингвинов",
            "description": "Всемирный день пингвинов призывает людей помнить о необходимости сохранения животного многообразия нашей планеты в целом и многообразия её отдельных регионов и представителей в частности."
        },
        {
            "day": 26,
            "label": "Международный день интеллектуальной собственности"
        },
        {
            "day": 27,
            "label": "День Российского парламентаризма"
        },
        {
            "day": 27,
            "label": "Международный день ветеринарного врача"
        },
        {
            "day": 28,
            "label": "День химической безопасности"
        },
        {
            "day": 28,
            "label": "Всемирный день охраны труда",
            "description": "Международная организация труда  объявила 28 апреля Всемирным днём охраны труда с тем, чтобы привлечь внимание мировой общественности к масштабам проблемы, а также к тому, каким образом создание и продвижение культуры охраны труда может способствовать снижению ежегодной смертности на рабочем месте. Впервые этот день был отмечен в 2003 году."
        },
        {
            "day": 28,
            "label": "День работников скорой медицинской помощи"
        },
        {
            "day": 29,
            "label": "Международный день танца"
        },
        {
            "day": 30,
            "label": "Международный день джаза"
        },
        {
            "day": 30,
            "label": "День пожарной охраны в России"
        }
    ],
    [
        {
            "day": 1,
            "label": "Праздник весны и труда"
        },
        {
            "day": 2,
            "label": "Православная Пасха"
        },
        {
            "day": 3,
            "label": "Всемирный день свободы печати"
        },
        {
            "day": 7,
            "label": "День радио"
        },
        {
            "day": 9,
            "label": "День Победы",
            "color": "orange"
        },
        {
            "day": 12,
            "label": "Международный день медицинской сестры"
        },
        {
            "day": 15,
            "label": "Международный день семей"
        },
        {
            "day": 17,
            "label": "Всемирный день электросвязи и информационного общества"
        },
        {
            "day": 18,
            "label": "Международный день музеев"
        },
        {
            "day": 20,
            "label": "Всемирный день метрологии"
        },
        {
            "day": 21,
            "label": "Всемирный день культурного разнообразия во имя диалога и развития"
        },
        {
            "day": 22,
            "label": "Международный день биологического разнообразия"
        },
        {
            "day": 24,
            "label": "День славянской письменности и культуры"
        },
        {
            "day": 25,
            "label": "День филолога"
        },
        {
            "day": 27,
            "label": "Всероссийский день библиотек"
        },
        {
            "day": 28,
            "label": "День пограничника"
        },
        {
            "day": 28,
            "label": "День сварщика"
        },
        {
            "day": 29,
            "label": "Международный день миротворцев ООН"
        },
        {
            "day": 30,
            "label": "День химика"
        },
        {
            "day": 31,
            "label": "Всемирный день без табака"
        }
    ],
    [
        {
            "day": 1,
            "label": "Международный день защиты детей"
        },
        {
            "day": 5,
            "label": "Всемирный день окружающей среды"
        },
        {
            "day": 6,
            "label": "День русского языка"
        },
        {
            "day": 6,
            "label": "День мелиоратора"
        },
        {
            "day": 8,
            "label": "День социального работника"
        },
        {
            "day": 8,
            "label": "Всемирный день океанов"
        },
        {
            "day": 12,
            "label": "День России",
            "color": "orange"
        },
        {
            "day": 13,
            "label": "День работников легкой промышленности"
        },
        {
            "day": 14,
            "label": "Всемирный день донора"
        },
        {
            "day": 14,
            "label": "День работников миграционной службы"
        },
        {
            "day": 17,
            "label": "Всемирный день борьбы с опустыниванием и засухой"
        },
        {
            "day": 20,
            "label": "День медицинского работника"
        },
        {
            "day": 22,
            "label": "День памяти и скорби"
        },
        {
            "day": 23,
            "label": "День государственной службы ООН"
        },
        {
            "day": 26,
            "label": "День изобретателя и рационализатора"
        },
        {
            "day": 27,
            "label": " День молодежи России"
        }
    ],
    [
        {
            "day": 3,
            "label": "День ГИБДД"
        },
        {
            "day": 4,
            "label": "День работников морского и речного флота"
        },
        {
            "day": 6,
            "label": "Всемирный день поцелуя"
        },
        {
            "day": 11,
            "label": "День рыбака"
        },
        {
            "day": 11,
            "label": "День российской почты"
        },
        {
            "day": 12,
            "label": "Всемирный день бортпроводника"
        },
        {
            "day": 18,
            "label": "День металлурга"
        },
        {
            "day": 24,
            "label": "День работника торговли"
        },
        {
            "day": 25,
            "label": "День ВМФ"
        },
        {
            "day": 28,
            "label": "День PR-специалиста"
        },
        {
            "day": 30,
            "label": "День системного администратора"
        },
        {
            "day": 30,
            "label": "Международный день дружбы"
        }
    ],
    [
        {
            "day": 1,
            "label": "День инкассатора"
        },
        {
            "day": 1,
            "label": "День железнодорожника"
        },
        {
            "day": 1,
            "label": "День тыла вооружённых сил РФ"
        },
        {
            "day": 2,
            "label": "День Воздушно-десантных войск"
        },
        {
            "day": 5,
            "label": "Международный день светофора"
        },
        {
            "day": 8,
            "label": "День строителя"
        },
        {
            "day": 9,
            "label": "Международный день коренных народов мира"
        },
        {
            "day": 12,
            "label": "День Военно-воздушных сил"
        },
        {
            "day": 12,
            "label": "Международный день молодежи"
        },
        {
            "day": 14,
            "label": "День физкультурника"
        },
        {
            "day": 15,
            "label": "День археолога"
        },
        {
            "day": 22,
            "label": "День Государственного флага России"
        },
        {
            "day": 27,
            "label": "День российского кино"
        },
        {
            "day": 28,
            "label": "День дальнобойщика"
        },
        {
            "day": 29,
            "label": "День шахтера"
        }
    ],
    [
        {
            "day": 1,
            "label": "День знаний"
        },
        {
            "day": 5,
            "label": "День работников нефтяной, газовой и топливной промышленности"
        },
        {
            "day": 8,
            "label": "Международный день грамотности"
        },
        {
            "day": 8,
            "label": "Международный день солидарности журналистов"
        },
        {
            "day": 9,
            "label": "Международный день красоты"
        },
        {
            "day": 9,
            "label": "День тестировщика"
        },
        {
            "day": 9,
            "label": "День дизайнера-графика"
        },
        {
            "day": 10,
            "label": "Всемирный день предотвращения самоубийств"
        },
        {
            "day": 13,
            "label": "День программиста"
        },
        {
            "day": 15,
            "label": "Международный день демократии"
        },
        {
            "day": 15,
            "label": "День HR-менеджера"
        },
        {
            "day": 16,
            "label": "Международный день охраны озонового слоя"
        },
        {
            "day": 19,
            "label": "День работника леса"
        },
        {
            "day": 21,
            "label": "Международный день мира"
        },
        {
            "day": 26,
            "label": "День машиностроителя"
        },
        {
            "day": 27,
            "label": "Всемирный день туризма"
        },
        {
            "day": 27,
            "label": "День работников дошкольного образования"
        },
        {
            "day": 30,
            "label": "Международный день переводчика"
        },
        {
            "day": 30,
            "label": "День Интернета в России"
        }
    ],
    [
        {
            "day": 1,
            "label": "Международный день пожилых людей"
        },
        {
            "day": 1,
            "label": "День Сухопутных войск РФ"
        },
        {
            "day": 4,
            "label": "Международный день врача"
        },
        {
            "day": 4,
            "label": "Всемирный день архитектуры"
        },
        {
            "day": 4,
            "label": "Всемирная неделя космоса (до 10 октября)"
        },
        {
            "day": 4,
            "label": "Всемирный день животных"
        },
        {
            "day": 5,
            "label": "День учителя"
        },
        {
            "day": 5,
            "label": "День работников уголовного розыска"
        },
        {
            "day": 6,
            "label": "День российского страховщика"
        },
        {
            "day": 9,
            "label": "Всемирный день почты"
        },
        {
            "day": 10,
            "label": "День работников сельского хозяйства"
        },
        {
            "day": 10,
            "label": "Всемирный день психического здоровья"
        },
        {
            "day": 12,
            "label": "День кадрового работника"
        },
        {
            "day": 15,
            "label": "Международный день сельских женщин"
        },
        {
            "day": 16,
            "label": "Всемирный день продовольствия"
        },
        {
            "day": 16,
            "label": "День анестезиолога"
        },
        {
            "day": 17,
            "label": "День работников пищевой промышленности"
        },
        {
            "day": 17,
            "label": "Международный день борьбы за ликвидацию нищеты"
        },
        {
            "day": 20,
            "label": "День военного связиста"
        },
        {
            "day": 21,
            "label": "Международный день кредитных союзов"
        },
        {
            "day": 23,
            "label": "День работников рекламы"
        },
        {
            "day": 24,
            "label": "Всемирный день информации о развитии"
        },
        {
            "day": 24,
            "label": "День Организации Объединенных Наций"
        },
        {
            "day": 24,
            "label": "День подразделений специального назначения"
        },
        {
            "day": 25,
            "label": "День маркетолога"
        },
        {
            "day": 25,
            "label": "День таможенника Российской Федерации"
        },
        {
            "day": 29,
            "label": "День вневедомственной охраны"
        },
        {
            "day": 30,
            "label": "День инженера-механика"
        },
        {
            "day": 31,
            "label": "День автомобилиста"
        },
        {
            "day": 31,
            "label": "Международный день Черного моря"
        }
    ],
    [
        {
            "day": 1,
            "label": "День судебного пристава"
        },
        {
            "day": 4,
            "label": "День народного единства",
            "color": "orange"
        },
        {
            "day": 5,
            "label": "День военного разведчика"
        },
        {
            "day": 10,
            "label": "День сотрудника органов внутренних дел Российской Федерации "
        },
        {
            "day": 14,
            "label": "Международный день логопеда"
        },
        {
            "day": 15,
            "label": "Всероссийский день призывника"
        },
        {
            "day": 16,
            "label": "Международный день терпимости"
        },
        {
            "day": 17,
            "label": "Международный день студентов"
        },
        {
            "day": 17,
            "label": "День участковых уполномоченных полиции."
        },
        {
            "day": 18,
            "label": "День рождения Деда Мороза."
        },
        {
            "day": 19,
            "label": "Всемирный день туалета. Утвержден в 2013 году Генеральной Ассамблеей ООН."
        },
        {
            "day": 19,
            "label": "Всемирный день философии."
        },
        {
            "day": 19,
            "label": "Международный мужской день."
        },
        {
            "day": 20,
            "label": "Всемирный день ребенка"
        },
        {
            "day": 20,
            "label": "Федотов день."
        },
        {
            "day": 21,
            "label": "Всемирный день телевидения"
        },
        {
            "day": 21,
            "label": "День работника налоговых органов"
        },
        {
            "day": 21,
            "label": "Всемирный день приветствий (World Hello Day). Празднуют с 1973 года."
        },
        {
            "day": 21,
            "label": "Михайлов день. Церковный праздник-Собор Архистратига Михаила и прочих небесных сил бесплотных."
        },
        {
            "day": 22,
            "label": "День памяти святого Георгия Победоносца."
        },
        {
            "day": 24,
            "label": "День моржа. Учрежден в 2008 году Всемирным фондом дикой природы."
        },
        {
            "day": 24,
            "label": "День памяти преподобного Феодора Студита, исповедника."
        },
        {
            "day": 25,
            "label": "День Ивана Милостивого. Раздал все свое имущество бедным. Создал приют, выкупал пленных."
        },
        {
            "day": 26,
            "label": "Всемирный день инфориации."
        },
        {
            "day": 26,
            "label": "Американский День Благодарения."
        },
        {
            "day": 26,
            "label": "День Георгиевского креста."
        },
        {
            "day": 26,
            "label": "День памяти святителя Иоанна Златоустого, архиепископа Константинопольского."
        },
        {
            "day": 27,
            "label": "День оценщика"
        },
        {
            "day": 27,
            "label": "День Морской пехоты"
        },
        {
            "day": 27,
            "label": "Черная пятница. После американского Дня Благодарения (обычно это последняя неделя ноября) стартует знаменитая Черная пятница (Blak Friday). "
        },
        {
            "day": 28,
            "label": "День матери "
        },
        {
            "day": 28,
            "label": "Гурьев день (память трех христианских мучеников Гурия, Самона и Авива)."
        },
        {
            "day": 28,
            "label": "День памяти преподобного Паисия Величковского (в миру Петр).Занимался собиранием писаний Святых отцов и переписыванием их."
        },
        {
            "day": 100,
            "label": "День матери России (День матерей).Последнее воскресенье ноября."
        },
        {
            "day": 29,
            "label": "День буквы ё."
        },
        {
            "day": 29,
            "label": "Матвеев день."
        },
        {
            "day": 30,
            "label": "Всемирный день домашних животных(World Day Pets)."
        },
        {
            "day": 30,
            "label": "Григорий Зимоуказатель (день памяти святителя Григория Чудотворца)."
        },
        {
            "day": 30,
            "label": "День памяти преподобного Никона  Радонежского"
        }
    ],
    [
        {
            "day": 1,
            "label": "Всемирный день борьбы со СПИДом"
        },
        {
            "day": 1,
            "label": "День победы русской эскадры под командованием П.С.Нахимова над турецкой эскадрой у мыса Синоп."
        },
        {
            "day": 1,
            "label": "Память мучеников Платона и Романа зимоуказателей."
        },
        {
            "day": 3,
            "label": "Международный день инвалидов"
        },
        {
            "day": 3,
            "label": "День неизвестного солдата."
        },
        {
            "day": 3,
            "label": "День памяти богатыря Святогора."
        },
        {
            "day": 3,
            "label": "Авдей Радетель- день памяти одного из двенадцати малых библейских пророков."
        },
        {
            "day": 4,
            "label": "День информатики"
        },
        {
            "day": 4,
            "label": "Введение во храм Пресвятой Богородицы."
        },
        {
            "day": 4,
            "label": "День заказов  подарков и  написания писем Деду Морозу"
        },
        {
            "day": 5,
            "label": "Международный день добровольцев во имя экономического и социального развития"
        },
        {
            "day": 5,
            "label": "День воинской славы России в честь начала контрнаступления советских войск против немецко-фашистских захватчиков в битве под Москвой 1941 года. Установлен ФЗ №32-ФЗ о т 13марта 1995 года «О днях воинской славы (победных днях) России»."
        },
        {
            "day": 5,
            "label": "Прокопьев день."
        },
        {
            "day": 6,
            "label": "День  сетевика."
        },
        {
            "day": 6,
            "label": "День памяти великого князя Александра Невского"
        },
        {
            "day": 6,
            "label": "Митрофанов день"
        },
        {
            "day": 7,
            "label": "Международный день гражданской авиации"
        },
        {
            "day": 9,
            "label": "Международный день борьбы с коррупцией"
        },
        {
            "day": 10,
            "label": "День прав человека"
        },
        {
            "day": 11,
            "label": "Международный день гор"
        },
        {
            "day": 12,
            "label": "День Конституции Российской Федерации"
        },
        {
            "day": 18,
            "label": "День работников ЗАГСа"
        },
        {
            "day": 20,
            "label": "Международный день солидарности людей"
        },
        {
            "day": 20,
            "label": "День работника органов безопасности"
        },
        {
            "day": 22,
            "label": "День энергетика"
        },
        {
            "day": 23,
            "label": "День Дальней авиации ВВС"
        },
        {
            "day": 27,
            "label": "День спасателя"
        }
    ]
]
