<svg width="126" height="116" viewBox="0 0 126 116" fill="none" xmlns="http://www.w3.org/2000/svg">
<path fill-rule="evenodd" clip-rule="evenodd" d="M83.7903 4.05427C51.4145 -6.9894 15.682 8.21887 4.1375 37.9556C-7.40695 67.6924 9.54095 100.87 41.9167 111.914C74.2909 122.957 110.023 107.749 121.568 78.0122C133.112 48.2755 116.164 15.0974 83.7903 4.05427ZM119.359 69.1444L111.623 68.0235L111.818 66.7712L119.554 67.8921L119.359 69.1444ZM120.101 64.3891L117.095 63.9542L117.007 64.5149C116.775 66.0003 115.692 66.5616 114.278 66.3578C112.698 66.129 112.045 65.3158 112.277 63.8289L112.564 61.9874L120.301 63.1068L120.101 64.3891ZM50.3461 99.6741L50.5195 99.4099C50.997 98.6824 51.4734 97.9566 51.9373 97.2224C52.3223 96.613 52.708 96.0039 53.0938 95.3947L53.0955 95.392C54.4932 93.1849 55.8909 90.9776 57.2552 88.7538C58.5939 86.571 59.893 84.3647 61.1454 82.1391C62.1627 80.3327 63.1373 78.5018 64.0316 76.6402C65.0889 74.4377 66.121 72.2166 67.0131 69.9511C67.7975 67.9541 68.4166 65.8941 68.4204 63.7254C68.4215 62.941 68.3166 62.1736 67.8975 61.4666C67.355 60.5516 66.4737 60.1929 65.4083 60.1364C63.8918 60.0554 62.4588 60.4061 61.0486 60.8375C57.3532 61.9676 53.9282 63.6296 50.5428 65.3615C45.0258 68.1847 39.7075 71.3049 34.3888 74.4253L34.3859 74.427L34.3831 74.4287L34.3802 74.4304C33.7325 74.8104 33.0849 75.1904 32.4368 75.5698L32.1179 75.7566L32.1177 75.7567C31.0592 76.3764 30.001 76.9959 28.9808 77.6791C29.3083 77.5296 29.6353 77.3794 29.9622 77.2293L29.9624 77.2292L29.9626 77.2291L29.9627 77.229L29.9629 77.229L29.9631 77.2289L29.9633 77.2288L29.9634 77.2287L29.9636 77.2286L29.9638 77.2286L29.964 77.2285L29.9641 77.2284L29.9643 77.2283L29.9645 77.2283L29.9647 77.2282L29.9648 77.2281C30.6628 76.9075 31.3607 76.587 32.0625 76.2733C38.092 73.5836 44.1909 71.0453 50.6811 69.4019C52.8607 68.8497 55.0708 68.419 57.3638 68.5609C57.7656 68.5867 58.1683 68.6428 58.5602 68.7267C59.809 68.9901 60.3773 69.8061 60.5631 70.9047C60.7826 72.1956 60.5933 73.4649 60.3186 74.7216C59.6578 77.7496 58.5425 80.6457 57.2716 83.4821C55.9522 86.4247 54.5414 89.3328 53.1084 92.2284C52.2492 93.9638 51.3455 95.6797 50.4418 97.3957C50.0867 98.0697 49.7317 98.7438 49.3794 99.4191C48.5916 99.1918 47.8037 98.9463 47.0189 98.6786C22.5481 90.3313 9.73357 65.2657 18.453 42.8056C22.4428 32.5286 30.2664 24.5613 39.9166 19.7289C40.5098 22.0764 41.1786 24.4015 42.2061 26.6167C42.9914 28.3075 43.8395 29.9734 44.6936 31.6507L44.6937 31.651C45.0584 32.3672 45.4241 33.0855 45.7864 33.8088L39.012 28.0655C38.9731 28.082 38.9325 28.0981 38.892 28.1141C39.0235 28.4679 39.1531 28.8223 39.2826 29.1768L39.283 29.1779C39.5937 30.0278 39.9043 30.8776 40.2418 31.7184C40.7294 32.9282 41.2191 34.1421 41.8002 35.3158C42.3835 36.4886 43.0544 37.6266 43.7383 38.7541C43.9995 39.1854 44.2704 39.6117 44.542 40.0391L44.5422 40.0394L44.5423 40.0396L44.5424 40.0398L44.5426 40.04L44.5427 40.0402L44.5428 40.0404L44.543 40.0406L44.5431 40.0409L44.5432 40.0411L44.5434 40.0413L44.5435 40.0415L44.5436 40.0417L44.5438 40.0419L44.5439 40.0421L44.544 40.0424C44.9802 40.7287 45.4182 41.418 45.8213 42.1356C43.7658 40.6747 41.7087 39.2132 39.6527 37.7536L39.5536 37.7995C39.6478 38.0142 39.7383 38.2304 39.8288 38.4467L39.8288 38.4468C40.0154 38.8928 40.202 39.3388 40.421 39.771C41.9395 42.7642 43.8923 45.4759 46.5455 47.733C46.6502 47.8217 46.7342 47.9305 46.8186 48.04L46.8187 48.0401C46.8558 48.0882 46.893 48.1364 46.9321 48.1832L46.9161 48.1748C46.9002 48.1661 46.8843 48.1569 46.8684 48.1476C46.8209 48.1198 46.7731 48.0918 46.7215 48.0799L46.6933 48.0736L46.6859 48.0694C45.1644 47.708 43.6424 47.3481 42.1203 46.9932C41.6744 46.8898 41.2281 46.7919 40.7817 46.694C40.5894 46.6519 40.3971 46.6097 40.2049 46.5671C40.1708 46.6036 40.1362 46.6416 40.1022 46.6781C40.829 47.4494 41.5569 48.2204 42.2875 48.9942L42.2907 48.9975L42.2946 49.0017L42.2998 49.0072L42.306 49.0137L43.2722 50.0372C43.2776 50.0324 43.282 50.0306 43.2874 50.0258C43.2937 50.0329 43.3016 50.0406 43.3078 50.0477L44.0361 49.5264L44.3484 49.3027C44.2667 49.2189 44.1861 49.1364 44.1022 49.0506L44.1018 49.0501L44.1015 49.0498C43.9668 48.912 43.8238 48.7657 43.6546 48.5916C43.7704 48.6116 43.8731 48.6245 43.9654 48.6362C44.1401 48.6582 44.2779 48.6755 44.3984 48.7275C44.878 48.9343 45.2892 48.829 45.7284 48.6188C45.9929 48.4909 46.2775 48.3988 46.5615 48.3069L46.5618 48.3068C46.686 48.2667 46.8101 48.2265 46.9323 48.1834L46.9323 48.1835L46.9339 48.184L46.9345 48.1826C47.1509 48.098 47.3678 48.0123 47.6011 47.9201C47.7465 47.8626 47.8984 47.8026 48.0605 47.7388C47.1168 46.6416 46.1746 45.5473 45.2332 44.4539C44.6214 43.7434 44.01 43.0333 43.3986 42.3229C43.4196 42.2969 43.4411 42.2694 43.4605 42.2428L50.5135 46.2961C47.7413 42.7126 45.5809 38.8468 43.9975 34.6668L43.9993 34.668L44.0012 34.6693L44.003 34.6706L44.0048 34.6718L44.0066 34.6731L44.0085 34.6743L44.0103 34.6756C46.1737 36.1702 48.3372 37.6649 50.5012 39.1581C47.6745 34.6635 45.0675 30.0962 43.6339 24.9304C44.0983 25.4186 44.5539 25.9018 45.0049 26.3801L45.0063 26.3815C46.016 27.4522 47.0028 28.4988 48.0153 29.524C49.4783 31.0035 50.9927 32.4392 52.5398 33.8512C50.0803 28.3736 47.6974 22.894 45.7625 17.2652L45.874 17.2265C45.9436 17.2021 46.0135 17.1777 46.0838 17.1542C47.0162 18.6277 47.9472 20.102 48.8781 21.5763L48.879 21.5778L48.8799 21.5792L48.8808 21.5806L48.8817 21.582L48.8826 21.5835L48.8835 21.5849L48.8844 21.5863L48.8853 21.5878L48.8862 21.5892L48.8871 21.5906L48.888 21.592L48.8889 21.5935L48.8904 21.5958L48.8918 21.5981L48.8933 21.6004C51.2802 25.3806 53.6673 29.1609 56.0789 32.9282C57.1016 34.526 58.158 36.1053 59.2146 37.6847L59.2149 37.6851C59.9644 38.8056 60.7141 39.9262 61.4517 41.0536C61.853 41.6665 62.2173 42.3009 62.5848 42.9409C62.7552 43.2376 62.9262 43.5355 63.102 43.8329C62.3827 44.2993 61.8549 44.8492 61.5638 45.5944C61.1282 46.7116 61.5518 48.389 62.5001 49.0543C63.1372 49.5022 63.1884 50.1053 62.791 50.9569C63.5303 50.8391 63.9949 50.4335 64.2369 49.8425C64.4717 49.2656 64.2341 48.7797 63.7378 48.3599C62.7188 47.4997 62.5274 46.3876 63.2697 45.5226C63.4784 45.2799 63.7938 45.1082 64.0968 44.9433L64.1707 44.903L64.2197 44.8761C64.3529 44.8024 64.5085 44.7634 64.6934 44.7172L64.6935 44.7171L64.6938 44.7171C64.7867 44.6938 64.887 44.6687 64.9955 44.6364C64.8691 44.3596 64.7511 44.0828 64.6341 43.8083L64.6341 43.8083L64.6341 43.8082L64.634 43.8081L64.634 43.8081L64.634 43.808L64.634 43.8079L64.6339 43.8079L64.6339 43.8078L64.6339 43.8077L64.6338 43.8077L64.6338 43.8076L64.6338 43.8075L64.6338 43.8075L64.6337 43.8074L64.6337 43.8074C64.3821 43.2171 64.1351 42.6376 63.8195 42.0918C61.9619 38.8834 60.0892 35.6815 58.1661 32.5071C56.2447 29.3337 54.3028 26.1712 52.3609 23.0087L52.3606 23.0082L52.3593 23.006C51.3462 21.3562 50.3332 19.7064 49.3231 18.0551C49.0744 17.6489 48.8347 17.2362 48.5948 16.8233L48.5939 16.8217C48.5195 16.6937 48.4451 16.5656 48.3705 16.4377C57.908 13.7053 68.4947 13.7464 78.647 17.2094C95.2225 22.8635 106.437 36.1885 109.249 51.1777C108.915 51.239 108.582 51.3003 108.249 51.3617C107.916 51.4231 107.582 51.4845 107.249 51.5457L103.283 52.2772L103.279 52.278C95.2837 53.7526 87.2904 55.2269 79.2944 56.6942C78.9211 56.7626 78.6901 56.8829 78.6086 57.2466C78.5515 57.5055 78.4782 57.7615 78.4049 58.0177C78.338 58.2517 78.271 58.4857 78.2164 58.722C77.9978 59.6711 77.6676 59.9914 76.6628 60.1696C75.7036 60.3418 75.3904 60.8787 75.7638 61.9036C76.0328 61.8253 76.3046 61.752 76.5767 61.6785L76.5772 61.6784L76.5776 61.6783C77.2239 61.5039 77.8718 61.329 78.4867 61.0871C79.0639 60.86 79.2711 60.3215 79.4703 59.804C79.5073 59.7079 79.544 59.6125 79.5828 59.5199C79.704 59.2311 79.8028 58.9115 79.8021 58.606C79.7999 58.1324 80.0375 58.0044 80.5013 57.9171C88.1366 56.4803 95.7695 55.0323 103.402 53.5844L103.403 53.5843L103.407 53.5835L103.411 53.5827L103.415 53.582L103.419 53.5812L103.423 53.5804L103.427 53.5796C105.44 53.1978 107.453 52.816 109.465 52.4344C109.474 52.4892 109.481 52.5437 109.489 52.5983L109.489 52.5985L109.489 52.5994C109.496 52.6542 109.504 52.709 109.512 52.7641C109.494 52.7775 109.477 52.7916 109.459 52.8058C109.435 52.8253 109.411 52.8447 109.386 52.862C107.337 54.2783 105.112 55.4306 102.737 56.2995C100.632 57.0705 98.4993 57.7826 96.3668 58.4946L96.3661 58.4948C95.4345 58.8059 94.5028 59.117 93.5734 59.433C93.4071 59.4891 93.2425 59.5457 93.0852 59.6763C96.4644 59.812 99.8436 59.9477 103.224 60.0839L103.257 60.2243C102.509 60.4479 101.766 60.6844 101.022 60.9208C99.3274 61.4598 97.6328 61.9987 95.8969 62.3856C94.1615 62.7737 92.3846 63.0094 90.6127 63.2446C89.838 63.3473 89.0642 63.45 88.2953 63.5652C88.5534 63.6186 88.8122 63.6709 89.0714 63.7234C90.9094 64.095 92.7686 64.471 94.5539 65.2588C94.4567 65.2863 94.3601 65.3172 94.2637 65.348C94.054 65.415 93.8447 65.4819 93.6293 65.5141C93.2006 65.5785 92.772 65.6454 92.3433 65.7123L92.3425 65.7124L92.3417 65.7125L92.3409 65.7126L92.3402 65.7128L92.3394 65.7129L92.3386 65.713L92.3378 65.7131L92.337 65.7132L92.3362 65.7134L92.3354 65.7135L92.3346 65.7136L92.3339 65.7137L92.3331 65.7138C90.9992 65.922 89.6649 66.1302 88.3224 66.2637C86.9953 66.3973 85.6602 66.4667 84.3246 66.5361L84.3245 66.5361L84.3244 66.5361L84.3243 66.5361L84.3242 66.5361L84.324 66.5361L84.3239 66.5361L84.3238 66.5361L84.3237 66.5361L84.3236 66.5361L84.3235 66.5361L84.3233 66.5361L84.3232 66.5361L84.3231 66.5361L84.323 66.5361L84.3229 66.5361L84.3219 66.5362L84.3209 66.5363L84.32 66.5363L84.319 66.5364L84.318 66.5364L84.3171 66.5365L84.3161 66.5365L84.3151 66.5366L84.3141 66.5366L84.3132 66.5367L84.3122 66.5368L84.3105 66.5368C83.7496 66.566 83.1886 66.5951 82.6282 66.6291C82.5171 66.6362 82.4066 66.6402 82.2728 66.645L82.2718 66.6451C82.1938 66.6479 82.1079 66.651 82.0093 66.6552C83.3909 67.5508 84.8857 68.0614 86.4909 68.6097L86.7516 68.6989L86.9497 68.7668C86.8491 68.7978 86.7661 68.8258 86.6939 68.8502C86.5645 68.894 86.4702 68.9258 86.3725 68.9415C84.6107 69.2364 82.8413 69.1555 81.0725 68.9519C80.3284 68.8662 79.5839 68.7813 78.7997 68.6919L78.0511 68.6065C79.5985 70.0765 81.4527 71.0174 83.3578 71.9841L83.3584 71.9844C83.8917 72.255 84.429 72.5277 84.9646 72.8145C82.281 73.0021 79.7455 72.6423 77.1937 72.2802C76.8784 72.2354 76.5629 72.1906 76.2468 72.1468C76.8281 72.7529 77.4097 73.3594 78.0004 73.9755C78.5922 74.5927 79.1931 75.2194 79.8121 75.8648C76.5415 75.6168 73.6518 74.7041 71.0081 72.8368C71.4185 74.6514 72.5212 75.9916 73.6203 77.3274L73.7953 77.5402C73.7591 77.5776 73.7213 77.6145 73.6845 77.6534C71.3689 76.3509 69.0516 75.0478 66.7279 73.7425C66.2574 74.7697 66.2626 74.7733 67.2088 75.4468L67.2293 75.4614C69.4361 77.0304 71.8424 78.2577 74.4703 79.091C74.9528 79.2442 75.4505 79.3536 75.9478 79.4629C76.1714 79.512 76.395 79.5612 76.6171 79.6143L76.6442 79.5766C76.6584 79.5566 76.6725 79.5364 76.6857 79.5166C75.7831 78.2498 74.8804 76.983 73.9773 75.7176C76.8612 76.5985 79.7228 77.1416 82.8179 76.4272L82.4854 76.1564L82.4798 76.1519C81.5701 75.411 80.7145 74.7141 79.858 74.0157C80.1461 74.0238 80.434 74.0329 80.7217 74.042C83.3341 74.1246 85.9346 74.2069 88.5718 73.5075C87.624 72.9375 86.7068 72.3862 85.803 71.8429L85.7828 71.8307L83.7874 70.6312C83.7927 70.5849 83.797 70.5366 83.8024 70.4903C86.9481 70.6924 89.9614 70.1375 93.0205 69.3296C92.6718 69.237 92.3253 69.1516 91.982 69.0671L91.9818 69.0671L91.9817 69.067L91.9815 69.067L91.9813 69.0669L91.9812 69.0669L91.981 69.0669C90.8336 68.7843 89.7218 68.5105 88.6802 68.0033C92.1108 67.3088 95.4753 66.5005 98.6011 64.6834C98.0832 64.5495 97.5974 64.4243 97.1215 64.3016C96.6202 64.1723 96.1299 64.0459 95.6246 63.9152C96.3844 63.6984 97.1463 63.4898 97.9071 63.2815L97.908 63.2812L97.909 63.281L97.9099 63.2807L97.9108 63.2804L97.9128 63.2799L97.9136 63.2797L97.9144 63.2794L97.9152 63.2792L97.916 63.279L97.9169 63.2788L97.9177 63.2785L97.9185 63.2783L97.9193 63.2781L97.9201 63.2779L97.9209 63.2776C101.809 62.2129 105.67 61.1558 109.09 59.0636C108.395 59.023 107.701 59.0022 107.007 58.9815L107.007 58.9815C105.319 58.9309 103.632 58.8804 101.945 58.5458C103.625 57.7758 105.304 57.0048 106.984 56.2335L107.005 56.224L107.021 56.2165C107.938 55.7959 108.854 55.3751 109.771 54.9543C110.316 60.94 109.535 67.1022 107.213 73.0824C98.8864 94.5301 73.8911 105.954 50.3461 99.6741ZM43.6289 18.0621C44.6144 21.1207 46.0111 24.0923 47.7159 26.9499C47.6971 26.961 47.6785 26.9716 47.66 26.9823L47.6356 26.9963L47.604 27.0146C45.2858 24.4952 42.9622 21.9706 40.5838 19.3874C41.5787 18.9089 42.5984 18.4737 43.6289 18.0621ZM120.135 53.1725L116.93 53.3833L117.089 55.1211L120.295 54.9109L120.411 56.1847L112.62 56.6991L112.503 55.4232L115.787 55.208L115.627 53.4696L112.345 53.6854L112.228 52.4214L120.02 51.9071L120.135 53.1725ZM117.513 41.69L117.9 42.9121L114.985 43.6647L115.201 44.3506C115.663 45.8087 114.94 46.7485 113.567 47.103C112.035 47.4995 111.077 46.9951 110.614 45.5349L110.011 43.6305L117.513 41.69ZM106.34 33.7962C106.565 34.1898 106.888 34.2933 107.761 34.0403C108.533 33.8094 109.899 33.2515 112.847 31.9943L114.79 35.3962L107.883 38.6956L107.238 37.5683L113.001 34.8159L112.321 33.6232C110.354 34.447 108.949 34.9997 108.083 35.2633C106.481 35.7589 105.806 35.2994 105.245 34.3186L106.34 33.7962ZM101.417 25.6286L103.562 24.0042C104.829 23.0415 106.179 23.1187 107.174 24.2312C108.162 25.3346 107.985 26.5682 106.716 27.5304L104.573 29.1553C103.303 30.1175 101.953 30.0403 100.966 28.9354C99.9723 27.8249 100.148 26.5893 101.417 25.6286ZM97.0943 15.469L100.386 17.9275L99.5873 18.8461L97.368 17.1882L96.2834 18.4325L96.9636 18.9416C98.2045 19.8675 98.236 21.0379 97.3533 22.0507C96.3447 23.2064 95.2199 23.2889 93.9806 22.3635L92.225 21.0513L97.0943 15.469ZM82.9401 14.6375L83.3684 14.8416C84.2439 14.5546 84.9922 13.6552 85.5437 12.7417L87.2377 9.93686L90.8278 11.6509L87.885 16.9978L88.5142 17.2987L87.3428 19.4274L86.1358 18.8515L86.7296 17.7733L83.5694 16.2639L82.9756 17.3422L81.7687 16.7662L82.9401 14.6375ZM76.4993 6.33194L75.6864 9.1935L77.512 9.65533L78.3249 6.79376L79.6652 7.13316L77.6876 14.0884L76.3488 13.7495L77.1815 10.8184L75.3564 10.3551L74.5238 13.2862L73.1946 12.9506L75.1707 5.99487L76.4993 6.33194ZM66.7288 4.82572L68.2227 12.1439L66.7958 12.0553L66.561 10.7293L64.7318 10.6163L64.3423 11.9036L62.9154 11.815L65.2559 4.73473L66.7288 4.82572ZM58.1262 4.74978L58.2819 5.94927L55.8323 6.19205L56.6129 12.1653L55.249 12.3006L54.3122 5.12936L58.1262 4.74978ZM37.1237 9.92701L38.51 12.623L40.2136 11.8918L38.8272 9.19584L40.0774 8.66006L43.4455 15.2124L42.1953 15.7481L40.7767 12.9864L39.0731 13.7176L40.4923 16.4778L39.2524 17.0105L35.8827 10.4576L37.1237 9.92701ZM27.7711 15.0584C28.9952 14.2084 30.3266 14.4403 31.331 15.6638L33.0267 17.7304C34.031 18.9539 33.9088 20.1946 32.6832 21.0441C31.4515 21.8997 30.1194 21.6693 29.1151 20.4458L27.4183 18.3772C26.414 17.1537 26.5378 15.9135 27.7711 15.0584ZM20.6127 21.0842L25.5823 25.0605L26.0396 24.5712L28.0184 26.1553L27.1395 27.0931L26.1381 26.2903L23.8384 28.7476L24.8399 29.5504L23.9632 30.4873L21.9838 28.9047L22.2957 28.5714C22.1912 27.7145 21.4099 26.8193 20.5733 26.0942L18.0012 23.8748L20.6127 21.0842ZM18.3066 32.3238L16.9355 34.5155L15.9451 33.9819L17.3167 31.7887L18.3066 32.3238ZM8.60811 39.2301C9.02045 38.1679 10.1107 37.7186 11.3522 38.1404C11.9838 38.3559 12.4729 38.7849 12.6487 39.2811C13.1521 38.8407 13.887 38.7297 14.6015 38.9734C15.9164 39.4203 16.4475 40.5089 15.9952 41.6785L15.2057 43.7169L7.84075 41.2113L8.60811 39.2301ZM5.65505 49.7678C5.86673 48.3619 6.97753 47.6641 8.61339 47.8936L11.3799 48.2815C13.0163 48.5096 13.8751 49.4844 13.6635 50.8903C13.45 52.3057 12.3392 53.0034 10.7033 52.7739L7.93682 52.386C6.30039 52.158 5.44099 51.1846 5.65505 49.7678ZM5.46133 62.2008L5.20343 57.9984L6.50812 57.9458L6.59594 59.3992L13.099 59.1372L13.1785 60.4351L6.67604 60.6956L6.76602 62.1481L5.46133 62.2008ZM12.8437 70.9751L9.80914 71.6405C8.23966 71.9844 7.16836 71.3801 6.81327 70.0661C6.44815 68.7222 7.09691 67.7722 8.63071 67.3713L8.96456 68.6051C8.19579 68.8173 7.94198 69.1919 8.10417 69.7931C8.24319 70.305 8.68426 70.5368 9.46547 70.3669L12.4984 69.701C13.2565 69.5349 13.5304 69.1456 13.3885 68.6226C13.2227 68.012 12.8051 67.7849 12.0343 67.9002L11.6988 66.666C13.2515 66.3794 14.3109 66.9863 14.6774 68.3406C15.0311 69.6442 14.4035 70.6329 12.8437 70.9751ZM16.7514 80.1851L14.2336 81.2689C12.7437 81.9104 11.452 81.5295 10.781 80.2289C10.1136 78.9378 10.6147 77.7865 12.1047 77.1451L14.6225 76.0612C16.114 75.4203 17.4057 75.8012 18.0715 77.0917C18.7431 78.3908 18.2429 79.5441 16.7514 80.1851ZM18.2765 91.0194L16.9636 89.4136C16.0084 88.245 16.211 87.03 17.5188 86.1273C18.8243 85.2255 20.1418 85.3912 21.0954 86.5593L21.5756 87.1461L23.6654 85.7039L24.4965 86.7223L18.2765 91.0194ZM36.2833 104.772L35.1624 104.137L38.2718 99.4077L36.9536 99.416L37.7009 98.2773L39.5506 98.2214L40.307 98.6503L36.2833 104.772ZM45.3756 102.944L43.8437 106.211C43.34 107.285 42.2438 107.666 41.1152 107.204C40.0179 106.756 39.5908 105.762 40.0486 104.681L41.2595 105.177C41.1011 105.617 41.2237 105.957 41.6223 106.122C42.0337 106.29 42.401 106.181 42.6142 105.73L43.0409 104.817C42.7365 104.894 42.36 104.864 42.0314 104.728C41.0259 104.317 40.6301 103.336 41.0843 102.366L41.5491 101.378C42.0506 100.305 43.1731 99.9216 44.3012 100.384C45.4187 100.842 45.8787 101.871 45.3756 102.944ZM48.13 109.509C46.9521 109.212 46.3296 108.257 46.6498 107.125L47.6254 103.677C47.9461 102.543 48.9653 102.012 50.1527 102.312C51.3099 102.603 51.8933 103.528 51.6182 104.66L50.3428 104.34C50.4265 103.882 50.2516 103.561 49.8302 103.455C49.3976 103.346 49.0528 103.503 48.9167 103.979L48.6447 104.945C48.933 104.826 49.3101 104.804 49.6559 104.89C50.7139 105.157 51.2649 106.073 50.9756 107.097L50.681 108.14C50.3603 109.273 49.318 109.808 48.13 109.509ZM55.32 110.786C54.0854 110.653 53.394 109.81 53.5025 108.558L54.8237 108.7C54.7897 109.309 55.0079 109.561 55.4521 109.608C55.908 109.657 56.1907 109.45 56.2777 108.682L56.363 107.913C56.4437 107.207 56.2358 106.947 55.8147 106.901C55.4144 106.858 55.1488 107.016 55.0004 107.445L53.7209 107.307L54.1758 103.283L57.9202 103.688L57.7991 104.763L55.355 104.498L55.1944 105.922C55.4547 105.805 55.7777 105.736 56.1101 105.773C57.1764 105.888 57.8358 106.725 57.685 108.067L57.6009 108.805C57.44 110.238 56.5525 110.919 55.32 110.786ZM75.6171 109.817L75.2883 108.668L78.0292 108.029L77.5816 106.469L76.7398 106.665C75.2064 107.023 74.1685 106.337 73.8055 105.067C73.3892 103.617 73.9759 102.734 75.5093 102.376L77.6781 101.87L79.6882 108.868L75.6171 109.817ZM88.9848 105.486L86.4546 103.006L87.0667 106.324L85.7724 106.889L84.8039 101.126C84.5617 99.651 84.9237 99.1142 86.0978 98.6022L86.3592 98.4873L86.8964 99.5134L86.5956 99.6463C86.0524 99.8824 85.9297 100.166 86.0798 100.993L90.2915 104.917L88.9848 105.486ZM95.8981 101.781L91.1575 95.9865L92.2508 95.2313L96.2046 100.066L97.36 99.2669C96.1342 97.5995 95.2959 96.4044 94.8627 95.6544C94.0506 94.2709 94.4228 93.5866 95.373 92.9302L96.1239 93.8483C95.7429 94.1132 95.6899 94.4219 96.1132 95.1785C96.4946 95.8478 97.3311 97.0057 99.1924 99.502L95.8981 101.781ZM106.966 92.4867L104.535 90.5276L104.932 91.4045L105.813 93.7076L104.778 94.8046L103.568 91.2694L98.6344 90.2568L99.6558 89.1752L103.14 89.9853L102.886 89.197L101.04 87.7079L101.922 86.7727L107.847 91.5528L106.966 92.4867ZM116.841 76.9507L114.46 76.0588C113.858 75.8334 112.781 75.3648 112.028 74.982L111.994 75.0037C112.079 75.0763 112.169 75.1523 112.262 75.2307C112.546 75.4704 112.857 75.7326 113.128 75.9925L116.073 78.7441L115.572 79.9186L108.295 77.1943L108.785 76.0491L111.051 76.8969C111.737 77.1541 112.901 77.6456 113.638 78.0097L113.682 77.9932C113.561 77.891 113.433 77.7855 113.303 77.6779L113.303 77.6778C112.976 77.4076 112.634 77.1246 112.338 76.8481L109.557 74.2455L110.055 73.0812L117.331 75.8055L116.841 76.9507ZM118.237 79.0677L117.92 79.812C117.111 79.4764 116.871 78.8224 117.154 78.164C117.443 77.486 118.123 77.1657 118.936 77.4362L118.612 78.1902C118.298 78.0831 118.044 78.1987 117.937 78.4459C117.835 78.6849 117.931 78.9415 118.237 79.0677ZM113.167 45.8316C113.895 45.6438 114.12 45.2193 113.918 44.5848L113.73 43.9883L111.608 44.5369L111.797 45.134C111.997 45.7679 112.437 46.0209 113.167 45.8316ZM14.1306 40.1914C13.4878 39.9721 13.0276 40.2083 12.7966 40.8081L12.5412 41.4658L14.4446 42.1135L14.7034 41.4469C14.9434 40.8286 14.7516 40.4015 14.1306 40.1914ZM9.7573 39.8294C9.95978 39.3078 10.3487 39.1667 10.9378 39.366C11.5376 39.5706 11.7691 39.9233 11.582 40.4053L11.3322 41.0534L9.52286 40.4379L9.7573 39.8294ZM18.3708 87.1711C17.6867 87.6444 17.5637 88.1566 18.0105 88.7039L18.4829 89.2831L20.546 87.8583L20.0721 87.2786C19.6247 86.7328 19.0549 86.6977 18.3708 87.1711ZM12.7188 78.3317L15.2361 77.2493C16.0016 76.9198 16.5741 77.0271 16.8728 77.6068C17.1732 78.1871 16.9052 78.668 16.1397 78.9975L13.6202 80.0808C12.8563 80.4108 12.2787 80.2935 11.9784 79.7132C11.6796 79.1335 11.9533 78.6611 12.7188 78.3317ZM114.482 65.0538C115.223 65.162 115.627 64.887 115.728 64.2362L115.802 63.767L113.613 63.45L113.54 63.9178C113.438 64.57 113.73 64.9448 114.482 65.0538ZM11.1848 49.5753C12.0243 49.6924 12.4417 50.0737 12.3466 50.7049C12.2515 51.336 11.7382 51.5973 10.897 51.4796L8.13214 51.0922C7.29257 50.975 6.87704 50.5844 6.97056 49.9527C7.06624 49.3201 7.5787 49.0702 8.41986 49.1879L11.1848 49.5753ZM24.6969 26.0061L23.3415 27.4549C23.0599 26.7566 22.4861 26.0665 21.7266 25.4176L19.8204 23.772L20.7125 22.8187L24.6969 26.0061ZM49.6675 106.852C49.802 106.375 49.5897 106.024 49.147 105.913C48.7033 105.8 48.3445 106.007 48.2094 106.485L47.9388 107.438C47.8043 107.915 48.02 108.257 48.4526 108.367C48.8953 108.478 49.2635 108.283 49.398 107.807L49.6675 106.852ZM42.7641 101.887C42.9774 101.436 43.3738 101.294 43.7926 101.467C44.204 101.635 44.3613 102.002 44.1497 102.454L43.727 103.357C43.5138 103.809 43.1245 103.965 42.7035 103.793C42.2831 103.619 42.1293 103.243 42.3409 102.791L42.7641 101.887ZM65.0806 9.42969L66.3524 9.50846L66.1182 8.15281C66.0441 7.70009 65.9747 7.00354 65.9258 6.51355L65.911 6.36502L65.8778 6.36201C65.7818 6.8419 65.6131 7.62547 65.4725 8.11336L65.0806 9.42969ZM30.2423 19.6639L28.545 17.5968C28.0303 16.9683 28.0287 16.4236 28.5778 16.0419C29.1286 15.6607 29.6893 15.8171 30.2039 16.4456L31.9012 18.5127C32.4159 19.1411 32.4257 19.6787 31.8766 20.0604C31.3258 20.4416 30.7575 20.2909 30.2423 19.6639ZM96.2443 21.2228C96.7101 20.6882 96.6104 20.1913 96.0866 19.8003L95.4834 19.349L94.1129 20.9204L94.7161 21.3718C95.2399 21.7628 95.7718 21.7651 96.2443 21.2228ZM75.1757 104.748C74.9811 104.067 75.2942 103.675 75.9422 103.523L76.6864 103.35L77.2518 105.318L76.507 105.492C75.859 105.644 75.3675 105.417 75.1757 104.748ZM89.0272 12.1299L87.8016 11.5459L86.5457 13.6226C86.0529 14.4499 85.4705 15.1173 84.8055 15.5275L86.6692 16.4171L89.0272 12.1299ZM103.665 28.1404C103.013 28.6331 102.43 28.6584 101.987 28.1621C101.544 27.6674 101.675 27.1382 102.326 26.6435L104.47 25.0191C105.121 24.5244 105.711 24.5082 106.154 25.0045C106.597 25.4992 106.46 26.0213 105.807 26.5155L103.665 28.1404ZM50.2222 58.7068L50.2244 58.7077C50.2642 58.7249 50.3036 58.7419 50.3428 58.7584C51.3004 59.1626 52.2561 59.5714 53.2433 59.9937L53.2443 59.9941L53.2458 59.9948L53.2471 59.9954L53.3229 60.0278L53.3403 60.0352C53.6734 60.1777 54.0102 60.3218 54.352 60.4677C52.7734 61.0956 51.1851 61.5624 49.4063 61.9245C49.9988 62.1881 50.5329 62.425 51.0751 62.6655L51.085 62.6699L51.8761 63.0208C51.7118 63.1011 51.5516 63.1809 51.3941 63.2593C50.9573 63.4768 50.5404 63.6844 50.1099 63.8667C50.0472 63.8934 49.9522 63.8776 49.8564 63.8449C49.7606 63.8172 49.6588 63.7725 49.5788 63.732C47.6439 62.77 45.714 61.7998 43.8114 60.7311L45.7092 60.6526L45.7355 60.6515C47.2191 60.5901 48.7021 60.5287 50.1848 60.4681C50.1871 60.439 50.1888 60.4113 50.1911 60.3822L46.5077 58.648C46.5206 58.6193 46.5346 58.5925 46.5476 58.5638C46.8185 58.5579 47.0894 58.5509 47.3604 58.5439C48.1007 58.5247 48.8412 58.5056 49.5812 58.5102C49.7055 58.5111 49.8316 58.5492 49.9575 58.5971C50.0467 58.6309 50.135 58.6691 50.2222 58.7068ZM54.2534 47.1125C54.255 47.1128 54.2567 47.1133 54.2584 47.1139L54.2658 47.1181C56.0479 47.7293 57.9379 46.9505 58.5671 45.3436C59.1969 43.7401 58.305 41.9478 56.5718 41.3316L56.5659 41.3299L56.5552 41.3273C56.5474 41.3256 56.5404 41.3242 56.5404 41.3242L56.5356 41.3226C54.848 40.7237 52.8309 41.5786 52.2228 43.1496C51.6129 44.73 52.5214 46.5214 54.2397 47.1108C54.2397 47.1108 54.2425 47.1108 54.2465 47.1112C54.2486 47.1115 54.2509 47.1119 54.2534 47.1125ZM71.408 39.4063C71.747 39.5054 72.0873 39.6198 72.4278 39.7525C69.9089 40.0994 67.8324 41.1397 66.2012 43.0104C66.197 42.9998 66.1918 42.9916 66.1858 42.9821L66.1842 42.9797C66.1782 42.986 66.1722 42.9922 66.1656 42.9999C65.5544 41.8989 64.9715 40.8506 64.3629 39.7571C66.7347 38.8308 69.0672 38.7174 71.408 39.4063ZM69.3962 43.4997C68.5856 45.5923 69.7729 47.9218 72.0468 48.6991C72.0506 48.7004 72.0567 48.7017 72.0621 48.7028L72.0735 48.7049L72.0825 48.7096C74.3841 49.4947 76.9091 48.4249 77.7173 46.3199C78.5226 44.2222 77.3352 41.8977 75.0603 41.1184C75.0523 41.1156 75.0336 41.1126 75.0336 41.1126L75.0246 41.1078C72.7241 40.3198 70.2147 41.3866 69.3962 43.4997ZM99.109 51.1299C99.1163 51.1622 99.1123 51.1957 99.1073 51.2272C98.7245 51.2735 98.3415 51.3189 97.9585 51.3643C97.1923 51.455 96.426 51.5458 95.6616 51.6445C93.0579 51.9806 90.455 52.3212 87.8522 52.6618C82.0073 53.4267 76.1627 54.1915 70.3094 54.905C64.3956 55.6268 58.4648 56.2432 52.5314 56.8289C49.7291 57.1057 46.9013 57.2294 44.0776 56.9282C43.4256 56.8584 42.7681 56.7187 42.1446 56.5243L42.135 56.521C42.1254 56.5177 42.1169 56.5165 42.1169 56.5165C41.0847 56.1976 40.8907 55.7017 41.323 54.7742C41.8431 53.6625 42.6678 52.7526 43.5708 51.906C45.7918 49.8234 48.2853 48.0858 51.2286 46.9481C51.276 46.9298 51.3247 46.9074 51.3743 46.8845C51.5469 46.8048 51.7296 46.7206 51.8986 46.795C51.9805 46.8213 52.0617 46.8772 52.1347 46.9917C49.716 48.3831 47.5532 50.0459 45.8398 52.1657C45.5223 52.5601 45.2828 53.0374 45.1318 53.5102C44.994 53.9443 45.1067 54.2216 45.4403 54.3719C45.5465 54.4148 45.6668 54.4492 45.8136 54.4711C47.6258 54.7209 49.4296 54.5366 51.218 54.3453C54.7125 53.97 58.2037 53.577 61.6947 53.184C64.6226 52.8544 67.5503 52.5248 70.4795 52.2058C76.3267 51.5674 82.184 51.0006 88.0778 50.7913C91.6092 50.6653 95.1403 50.6421 98.6633 51.0542C98.7542 51.065 98.8442 51.0802 98.9343 51.0954C98.9846 51.104 99.035 51.1125 99.0856 51.1202L99.0845 51.1232C99.0972 51.1275 99.109 51.1299 99.109 51.1299Z" fill="#FAB81E" fill-opacity="0.7"/>
</svg>
