<svg width="20" height="15" viewBox="0 0 20 15" fill="none" xmlns="http://www.w3.org/2000/svg">
<path d="M1 8.8L6.04146 14L18.4073 1" stroke="#50B848" stroke-width="2" stroke-linecap="round" stroke-linejoin="round"/>
</svg>
