<svg width="171" height="60" viewBox="0 0 171 60" fill="none" xmlns="http://www.w3.org/2000/svg">
<path d="M157.005 0H13.3281C5.9672 0 0 5.9424 0 13.2727V46.4545C0 53.7849 5.9672 59.7273 13.3281 59.7273H157.005C164.366 59.7273 170.333 53.7849 170.333 46.4545V13.2727C170.333 5.9424 164.366 0 157.005 0Z" fill="#1E1D1D"/>
<path fill-rule="evenodd" clip-rule="evenodd" d="M21.2333 18.8503C20.8962 19.2111 20.7024 19.7665 20.7024 20.4881V46.1555C20.7024 46.8771 20.8962 47.4325 21.246 47.7806L21.3373 47.8575L35.7793 33.4755V33.1523L21.3247 18.7734L21.2333 18.8503Z" fill="white"/>
<path fill-rule="evenodd" clip-rule="evenodd" d="M40.5833 38.2886L35.7661 33.4898V33.1541L40.5849 28.3555L40.6889 28.4198L46.3882 31.645C48.0201 32.5612 48.0201 34.0703 46.3882 34.9989L40.6889 38.2242C40.6873 38.2242 40.5833 38.2886 40.5833 38.2886Z" fill="white"/>
<path fill-rule="evenodd" clip-rule="evenodd" d="M40.6872 38.2244L35.766 33.3223L21.2327 47.7952C21.7635 48.363 22.6567 48.4273 23.6554 47.8721L40.6872 38.2244Z" fill="white"/>
<path fill-rule="evenodd" clip-rule="evenodd" d="M40.6872 28.421L23.6554 18.7859C22.6582 18.218 21.7635 18.2949 21.2327 18.8628L35.7644 33.3216L40.6872 28.421Z" fill="white"/>
<path opacity="0.2" fill-rule="evenodd" clip-rule="evenodd" d="M40.5835 38.1201L23.6683 47.691C22.7232 48.2322 21.8805 48.1946 21.337 47.7035L21.2456 47.7945L21.337 47.8714C21.8805 48.3608 22.7232 48.4001 23.6683 47.8589L40.7001 38.2238L40.5835 38.1201Z" fill="white"/>
<path opacity="0.12" fill-rule="evenodd" clip-rule="evenodd" d="M46.3869 34.8313L40.571 38.1209L40.675 38.2244L46.3743 34.9992C47.1903 34.5348 47.592 33.9293 47.592 33.3223C47.54 33.8775 47.1257 34.4062 46.3869 34.8313Z" fill="white"/>
<path opacity="0.25" fill-rule="evenodd" clip-rule="evenodd" d="M23.6565 18.9541L46.3876 31.8145C47.1264 32.227 47.5407 32.7682 47.6052 33.3236C47.6052 32.718 47.2036 32.1109 46.3876 31.6466L23.6565 18.7862C22.0246 17.8575 20.7029 18.6309 20.7029 20.4883V20.6561C20.7029 18.7988 22.0246 18.0379 23.6565 18.9541Z" fill="white"/>
<path d="M41.9441 27.1025L20.7024 48.2559" stroke="#1E1D1D"/>
<path d="M20.7029 18.3926L41.9446 39.546" stroke="#1E1D1D"/>
<path fill-rule="evenodd" clip-rule="evenodd" d="M53.1525 32.5071C53.1525 28.3955 56.6228 25.0479 60.7517 25.0479C63.0342 25.0479 64.6582 25.9404 65.8839 27.1028L64.4409 28.5398C63.5651 27.7209 62.3774 27.0855 60.7501 27.0855C57.7351 27.0855 55.3784 29.503 55.3784 32.5055C55.3784 35.5081 57.7351 37.9286 60.7484 37.9286C62.7033 37.9286 63.8156 37.1474 64.5291 36.4352C65.1135 35.8532 65.4964 35.017 65.6444 33.8703H60.7517V31.8372H67.6387C67.7112 32.2012 67.7489 32.6373 67.7489 33.1095C67.7489 34.6358 67.3284 36.5293 65.9752 37.8768C64.6582 39.2416 62.979 39.9695 60.7501 39.9695C56.6197 39.9695 53.1494 36.625 53.1494 32.5102L53.1525 32.5071ZM73.316 30.361C70.649 30.361 68.472 32.3816 68.472 35.1629C68.472 37.9301 70.6475 39.9647 73.316 39.9647C75.9845 39.9647 78.1567 37.927 78.1567 35.1613C78.1567 32.38 75.9828 30.3595 73.316 30.361ZM73.316 38.076C71.8556 38.076 70.5939 36.876 70.5939 35.1644C70.5939 33.4358 71.8541 32.253 73.316 32.253C74.7762 32.253 76.0365 33.4342 76.0365 35.1644C76.0365 36.8744 74.7778 38.076 73.316 38.076ZM83.8781 30.361C81.2112 30.361 79.0373 32.3816 79.0373 35.1629C79.0373 37.9301 81.2112 39.9647 83.8781 39.9647C86.545 39.9647 88.7188 37.927 88.7188 35.1613C88.7188 32.38 86.5466 30.3595 83.8781 30.361ZM83.8781 38.076C82.4178 38.076 81.156 36.876 81.156 35.1644C81.156 33.4358 82.4162 32.253 83.8781 32.253C85.3384 32.253 86.6001 33.4342 86.6001 35.1644C86.6001 36.8744 85.3384 38.076 83.8781 38.076ZM96.8409 30.6528V31.434H96.7685C96.2943 30.8677 95.3807 30.3595 94.2307 30.3595C91.8189 30.3595 89.6057 32.471 89.6057 35.1833C89.6057 37.8736 91.8174 39.9679 94.2307 39.9679C95.3807 39.9679 96.2943 39.4596 96.7685 38.8777H96.8409V39.5679C96.8409 41.4048 95.8548 42.3884 94.2653 42.3884C92.9674 42.3884 92.1639 41.4598 91.8347 40.6801L89.9886 41.4441C90.5178 42.7163 91.9261 44.2819 94.2638 44.2819C96.7463 44.2819 98.8478 42.8246 98.8478 39.2777V30.6513L96.8409 30.6528ZM94.4118 38.076C92.9516 38.076 91.7244 36.8556 91.7244 35.1833C91.7244 33.4922 92.9501 32.2545 94.4118 32.2545C95.8548 32.2545 96.9874 33.4906 96.9874 35.1833C96.989 36.8556 95.8564 38.076 94.4118 38.076ZM100.311 25.5576H102.432V39.6762H100.311V25.5576ZM108.243 38.076C107.165 38.076 106.396 37.5835 105.907 36.6218L112.355 33.9628L112.133 33.417C111.733 32.3455 110.508 30.361 108.005 30.361C105.521 30.361 103.455 32.3078 103.455 35.1644C103.455 37.8548 105.502 39.9664 108.243 39.9664C110.455 39.9664 111.733 38.622 112.263 37.8376L110.618 36.7473C110.068 37.549 109.319 38.0776 108.243 38.076ZM108.077 32.2169C108.917 32.2169 109.629 32.6358 109.867 33.2349L105.554 35.0185C105.5 33.1628 106.998 32.2169 108.077 32.2169Z" fill="white"/>
<path fill-rule="evenodd" clip-rule="evenodd" d="M121.659 25.5586H116.59V39.677H118.705V34.3292H121.66C124.006 34.3292 126.312 32.6382 126.312 29.9431C126.312 27.2527 124.007 25.5601 121.664 25.5601L121.659 25.5586ZM121.714 32.3636H118.705V27.5226H121.714C123.295 27.5226 124.196 28.8293 124.196 29.9431C124.196 31.0381 123.295 32.3636 121.714 32.3636ZM129.594 39.677V25.5586H127.478V39.677H129.594ZM139.097 39.6519V34.2398C139.097 31.7331 137.216 30.3353 134.789 30.3353C133.259 30.3353 131.673 31.0083 131.016 32.497L132.894 33.2767C133.296 32.497 134.042 32.2413 134.829 32.2413C135.921 32.2413 137.033 32.8954 137.051 34.0594V34.2053C136.668 33.9872 135.849 33.6594 134.844 33.6594C132.819 33.6594 130.759 34.7669 130.759 36.8376C130.759 38.7279 132.419 39.9437 134.28 39.9437C135.704 39.9437 136.487 39.3084 136.978 38.5648H137.051V39.655H139.096L139.097 39.6519ZM134.536 38.0738C133.843 38.0738 132.876 37.7287 132.876 36.8768C132.876 35.7866 134.081 35.3661 135.121 35.3661C136.052 35.3661 136.488 35.5653 137.055 35.8383C136.893 37.1059 135.817 38.0581 134.536 38.0738ZM146.537 30.6444L144.112 36.7639H144.038L141.521 30.6444H139.242L143.016 39.2001L140.863 43.958H143.07L148.887 30.6444H146.537Z" fill="white"/>
<path d="M58.9974 13.6584C58.9974 13.199 58.8285 12.8346 58.4904 12.5653C58.1563 12.292 57.685 12.1554 57.0765 12.1554C56.5675 12.1554 56.14 12.296 55.794 12.5771C55.4519 12.8544 55.2809 13.199 55.2809 13.6109H54.1355C54.1355 13.1514 54.2608 12.7395 54.5114 12.3752C54.7658 12.0108 55.1198 11.7277 55.5732 11.5257C56.0266 11.3198 56.5277 11.2168 57.0765 11.2168C58.0469 11.2168 58.8006 11.4346 59.3375 11.8703C59.8744 12.302 60.1429 12.9039 60.1429 13.6762C60.1429 14.0762 60.0196 14.4406 59.773 14.7694C59.5264 15.0981 59.1823 15.3574 58.741 15.5476C59.763 15.8881 60.274 16.5634 60.274 17.5733C60.274 18.3497 59.9838 18.9655 59.4031 19.4209C58.8225 19.8764 58.0469 20.1041 57.0765 20.1041C56.4998 20.1041 55.9749 20.0031 55.5017 19.8012C55.0323 19.5952 54.6664 19.3041 54.404 18.9278C54.1415 18.5516 54.0103 18.104 54.0103 17.5853H55.1557C55.1557 18.0407 55.3366 18.4209 55.6985 18.7258C56.0605 19.0269 56.5197 19.1773 57.0765 19.1773C57.7009 19.1773 58.1981 19.0328 58.5679 18.7437C58.9418 18.4545 59.1287 18.0724 59.1287 17.5971C59.1287 16.5832 58.4984 16.0664 57.2377 16.0466H56.1639V15.1079H57.2317C57.8123 15.0961 58.2517 14.9653 58.55 14.7158C58.8484 14.4663 58.9974 14.1139 58.9974 13.6584ZM65.6073 19.9853C65.5436 19.8586 65.492 19.6328 65.4522 19.3081C64.9391 19.8388 64.3267 20.1041 63.6148 20.1041C62.9784 20.1041 62.4555 19.9259 62.0459 19.5694C61.6402 19.2091 61.4373 18.7536 61.4373 18.2031C61.4373 17.5337 61.6919 17.0149 62.2009 16.6466C62.714 16.2743 63.4338 16.0882 64.3604 16.0882H65.4342V15.5832C65.4342 15.1991 65.3189 14.8941 65.0882 14.6684C64.8576 14.4386 64.5176 14.3237 64.0682 14.3237C63.6745 14.3237 63.3444 14.4228 63.0779 14.6208C62.8115 14.8188 62.6782 15.0585 62.6782 15.3396H61.5686C61.5686 15.0189 61.6819 14.71 61.9086 14.4129C62.1393 14.1119 62.4495 13.8742 62.8392 13.7C63.233 13.5257 63.6645 13.4385 64.1337 13.4385C64.8774 13.4385 65.4601 13.6247 65.8817 13.997C66.3032 14.3653 66.522 14.8743 66.5379 15.5238V18.4823C66.5379 19.0724 66.6134 19.5418 66.7646 19.8903V19.9853H65.6073ZM63.7759 19.1477C64.1219 19.1477 64.4499 19.0585 64.7602 18.8804C65.0704 18.7021 65.2951 18.4705 65.4342 18.1853V16.8664H64.5692C63.2171 16.8664 62.541 17.2605 62.541 18.0486C62.541 18.3931 62.6563 18.6625 62.887 18.8566C63.1177 19.0506 63.4139 19.1477 63.7759 19.1477ZM72.4378 14.4663H69.461V19.9853H68.3514V13.5574H72.4378V14.4663ZM78.8507 16.8427C78.8507 17.8209 78.6261 18.609 78.1767 19.2071C77.7273 19.8051 77.1188 20.1041 76.3512 20.1041C75.5677 20.1041 74.9513 19.8566 74.5019 19.3615V22.4567H73.3983V13.5574H74.4065L74.4601 14.2703C74.9095 13.7158 75.5339 13.4385 76.3333 13.4385C77.1089 13.4385 77.7213 13.7297 78.1707 14.3119C78.6241 14.8941 78.8507 15.704 78.8507 16.7417V16.8427ZM77.7472 16.7179C77.7472 15.9931 77.592 15.4208 77.2818 15.001C76.9716 14.5812 76.5461 14.3713 76.0052 14.3713C75.3371 14.3713 74.836 14.6664 74.5019 15.2565V18.3279C74.832 18.914 75.3371 19.2071 76.0172 19.2071C76.5461 19.2071 76.9657 18.9991 77.2759 18.5833C77.59 18.1635 77.7472 17.5417 77.7472 16.7179ZM82.2988 18.3753L83.8021 13.5574H84.9833L82.3884 20.9775C81.9866 22.0468 81.3483 22.5815 80.4735 22.5815L80.2646 22.5635L79.853 22.4863V21.5953L80.1512 21.619C80.5251 21.619 80.8154 21.5438 81.0222 21.3932C81.233 21.2428 81.4061 20.9675 81.5413 20.5675L81.7858 19.914L79.4832 13.5574H80.6881L82.2988 18.3753ZM89.5231 15.3159C89.5231 15.0149 89.4078 14.7772 89.1772 14.603C88.9465 14.4247 88.6303 14.3357 88.2286 14.3357C87.8389 14.3357 87.5128 14.4366 87.2502 14.6386C86.9918 14.8406 86.8625 15.0783 86.8625 15.3515H85.7648C85.7648 14.7931 85.9995 14.3357 86.4688 13.9792C86.938 13.6228 87.5247 13.4445 88.2286 13.4445C88.9842 13.4445 89.5729 13.6069 89.9944 13.9316C90.416 14.2525 90.6268 14.7119 90.6268 15.3099C90.6268 15.599 90.5393 15.8644 90.3642 16.106C90.1893 16.3476 89.9407 16.5397 89.6186 16.6823C90.3702 16.9357 90.7461 17.4347 90.7461 18.1793C90.7461 18.7694 90.5174 19.2367 90.06 19.5814C89.6027 19.9259 88.9922 20.0981 88.2286 20.0981C87.4849 20.0981 86.8705 19.918 86.3853 19.5576C85.9041 19.1932 85.6634 18.7021 85.6634 18.0842H86.7611C86.7611 18.3971 86.9003 18.6664 87.1787 18.8922C87.461 19.114 87.811 19.2249 88.2286 19.2249C88.6503 19.2249 88.9902 19.1279 89.2488 18.9338C89.5072 18.7398 89.6365 18.4883 89.6365 18.1793C89.6365 17.8189 89.5271 17.5615 89.3084 17.407C89.0936 17.2486 88.7575 17.1694 88.3002 17.1694H87.1966V16.2426H88.3957C89.1473 16.2228 89.5231 15.9139 89.5231 15.3159ZM96.3537 13.5574H97.4574V19.9853H96.3537V15.298L93.3769 19.9853H92.2733V13.5574H93.3769V18.2506L96.3537 13.5574ZM104.025 14.4485H101.86V19.9853H100.756V14.4485H98.6326V13.5574H104.025V14.4485ZM107.301 20.1041C106.426 20.1041 105.714 19.819 105.165 19.2487C104.616 18.6744 104.342 17.908 104.342 16.9496V16.7475C104.342 16.1099 104.463 15.5416 104.706 15.0425C104.952 14.5396 105.294 14.1475 105.732 13.8664C106.173 13.5812 106.65 13.4385 107.163 13.4385C108.002 13.4385 108.655 13.7138 109.12 14.2643C109.585 14.8148 109.818 15.603 109.818 16.6288V17.0862H105.445C105.461 17.7199 105.646 18.2328 106 18.6249C106.358 19.013 106.811 19.2071 107.36 19.2071C107.75 19.2071 108.08 19.1279 108.35 18.9694C108.621 18.811 108.857 18.6011 109.06 18.3397L109.734 18.8626C109.194 19.6902 108.382 20.1041 107.301 20.1041ZM107.163 14.3416C106.718 14.3416 106.344 14.504 106.042 14.8287C105.739 15.1495 105.553 15.601 105.481 16.1832H108.714V16.1001C108.683 15.5416 108.531 15.1099 108.261 14.805C107.99 14.496 107.625 14.3416 107.163 14.3416ZM114.232 19.9853V13.5574H116.75C117.609 13.5574 118.267 13.7079 118.725 14.0089C119.186 14.3059 119.417 14.7436 119.417 15.3218C119.417 15.6188 119.327 15.8881 119.148 16.1298C118.969 16.3674 118.705 16.5496 118.355 16.6763C118.745 16.7673 119.057 16.9456 119.291 17.211C119.53 17.4763 119.649 17.7932 119.649 18.1615C119.649 18.7516 119.431 19.2031 118.993 19.516C118.559 19.8289 117.945 19.9853 117.15 19.9853H114.232ZM115.336 17.1634V19.1001H117.162C117.623 19.1001 117.967 19.015 118.194 18.8446C118.425 18.6744 118.539 18.4347 118.539 18.1258C118.539 17.4843 118.066 17.1634 117.12 17.1634H115.336ZM115.336 16.2842H116.762C117.796 16.2842 118.313 15.9833 118.313 15.3812C118.313 14.7792 117.824 14.4683 116.845 14.4485H115.336V16.2842Z" fill="white"/>
</svg>
