<svg width="171" height="60" viewBox="0 0 171 60" fill="none" xmlns="http://www.w3.org/2000/svg">
<path d="M157.672 0H13.9949C6.63395 0 0.666748 5.9424 0.666748 13.2727V46.4545C0.666748 53.7849 6.63395 59.7273 13.9949 59.7273H157.672C165.033 59.7273 171 53.7849 171 46.4545V13.2727C171 5.9424 165.033 0 157.672 0Z" fill="#1E1D1D"/>
<path d="M62.3506 15.4358C62.3506 14.9763 62.1815 14.612 61.8434 14.3426C61.5093 14.0695 61.0381 13.9327 60.4296 13.9327C59.9205 13.9327 59.493 14.0733 59.147 14.3546C58.8049 14.6318 58.634 14.9763 58.634 15.3882H57.4886C57.4886 14.9289 57.6138 14.517 57.8644 14.1526C58.119 13.7882 58.4728 13.505 58.9262 13.3031C59.3796 13.0971 59.8807 12.9941 60.4296 12.9941C61.4 12.9941 62.1536 13.2119 62.6905 13.6476C63.2274 14.0793 63.4959 14.6813 63.4959 15.4536C63.4959 15.8536 63.3726 16.218 63.126 16.5467C62.8795 16.8754 62.5355 17.1348 62.094 17.3249C63.116 17.6656 63.6272 18.3408 63.6272 19.3508C63.6272 20.127 63.3368 20.7429 62.7562 21.1983C62.1755 21.6538 61.4 21.8814 60.4296 21.8814C59.853 21.8814 59.328 21.7805 58.8547 21.5785C58.3854 21.3726 58.0195 21.0814 57.757 20.7053C57.4946 20.329 57.3633 19.8815 57.3633 19.3626H58.5087C58.5087 19.8181 58.6897 20.1982 59.0515 20.5033C59.4135 20.8043 59.8729 20.9548 60.4296 20.9548C61.0539 20.9548 61.5511 20.8102 61.9209 20.5211C62.2948 20.232 62.4817 19.8497 62.4817 19.3745C62.4817 18.3606 61.8514 17.8438 60.5907 17.824H59.5169V16.8854H60.5847C61.1653 16.8734 61.6048 16.7428 61.9031 16.4933C62.2014 16.2437 62.3506 15.8912 62.3506 15.4358ZM68.9603 21.7627C68.8967 21.6359 68.845 21.4102 68.8052 21.0854C68.2922 21.6161 67.6797 21.8814 66.9679 21.8814C66.3315 21.8814 65.8085 21.7033 65.3989 21.3468C64.9932 20.9864 64.7904 20.5309 64.7904 19.9805C64.7904 19.3112 65.0449 18.7923 65.554 18.424C66.067 18.0517 66.7869 17.8656 67.7136 17.8656H68.7874V17.3605C68.7874 16.9764 68.672 16.6715 68.4413 16.4457C68.2107 16.216 67.8706 16.1012 67.4212 16.1012C67.0275 16.1012 66.6974 16.2002 66.431 16.3982C66.1645 16.5962 66.0312 16.8358 66.0312 17.117H64.9217C64.9217 16.7962 65.0349 16.4873 65.2616 16.1902C65.4923 15.8893 65.8025 15.6517 66.1923 15.4774C66.586 15.3032 67.0175 15.216 67.4869 15.216C68.2306 15.216 68.8131 15.4021 69.2347 15.7744C69.6564 16.1428 69.8751 16.6517 69.8909 17.3011V20.2596C69.8909 20.8498 69.9665 21.3191 70.1176 21.6676V21.7627H68.9603ZM67.1289 20.925C67.4749 20.925 67.803 20.8359 68.1132 20.6577C68.4234 20.4795 68.6481 20.2478 68.7874 19.9627V18.6438H67.9224C66.5701 18.6438 65.8941 19.0379 65.8941 19.8259C65.8941 20.1706 66.0093 20.4399 66.24 20.6339C66.4707 20.828 66.767 20.925 67.1289 20.925ZM75.7908 16.2437H72.8141V21.7627H71.7044V15.3348H75.7908V16.2437ZM82.2039 18.62C82.2039 19.5983 81.9791 20.3864 81.5297 20.9844C81.0803 21.5825 80.4718 21.8814 79.7043 21.8814C78.9208 21.8814 78.3043 21.634 77.8549 21.139V24.234H76.7514V15.3348H77.7595L77.8132 16.0476C78.2627 15.4932 78.887 15.216 79.6864 15.216C80.4619 15.216 81.0743 15.5071 81.5237 16.0892C81.9772 16.6715 82.2039 17.4814 82.2039 18.519V18.62ZM81.1002 18.4952C81.1002 17.7706 80.9452 17.1982 80.635 16.7784C80.3247 16.3586 79.8991 16.1486 79.3582 16.1486C78.6902 16.1486 78.189 16.4437 77.8549 17.0338V20.1052C78.185 20.6913 78.6902 20.9844 79.3702 20.9844C79.8991 20.9844 80.3187 20.7765 80.629 20.3606C80.9432 19.9409 81.1002 19.319 81.1002 18.4952ZM85.6519 20.1528L87.1553 15.3348H88.3364L85.7414 22.7548C85.3398 23.8241 84.7015 24.3588 83.8265 24.3588L83.6177 24.341L83.2061 24.2638V23.3726L83.5044 23.3964C83.8781 23.3964 84.1685 23.3211 84.3753 23.1707C84.5861 23.0201 84.7591 22.7448 84.8943 22.3449L85.1389 21.6914L82.8362 15.3348H84.0413L85.6519 20.1528ZM92.8762 17.0932C92.8762 16.7922 92.7609 16.5547 92.5302 16.3803C92.2995 16.2022 91.9834 16.113 91.5817 16.113C91.1919 16.113 90.8658 16.214 90.6034 16.416C90.3448 16.618 90.2155 16.8556 90.2155 17.1289H89.118C89.118 16.5705 89.3525 16.113 89.8218 15.7565C90.2912 15.4002 90.8777 15.222 91.5817 15.222C92.3374 15.222 92.9259 15.3843 93.3475 15.7091C93.769 16.0298 93.9798 16.4893 93.9798 17.0873C93.9798 17.3765 93.8923 17.6418 93.7174 17.8834C93.5423 18.1249 93.2938 18.3171 92.9717 18.4596C93.7233 18.7131 94.0991 19.2121 94.0991 19.9567C94.0991 20.5468 93.8704 21.0142 93.4131 21.3587C92.9558 21.7033 92.3453 21.8756 91.5817 21.8756C90.838 21.8756 90.2235 21.6954 89.7383 21.3349C89.2571 20.9706 89.0164 20.4795 89.0164 19.8617H90.1141C90.1141 20.1746 90.2533 20.4438 90.5317 20.6695C90.8141 20.8914 91.1641 21.0022 91.5817 21.0022C92.0033 21.0022 92.3433 20.9052 92.6018 20.7111C92.8603 20.5171 92.9896 20.2656 92.9896 19.9567C92.9896 19.5963 92.8802 19.3388 92.6615 19.1844C92.4467 19.0259 92.1106 18.9467 91.6533 18.9467H90.5496V18.02H91.7487C92.5004 18.0002 92.8762 17.6912 92.8762 17.0932ZM99.7067 15.3348H100.81V21.7627H99.7067V17.0754L96.73 21.7627H95.6263V15.3348H96.73V20.028L99.7067 15.3348ZM107.378 16.2259H105.213V21.7627H104.109V16.2259H101.986V15.3348H107.378V16.2259ZM110.654 21.8814C109.779 21.8814 109.067 21.5963 108.518 21.026C107.969 20.4518 107.695 19.6854 107.695 18.727V18.525C107.695 17.8874 107.816 17.3189 108.059 16.82C108.305 16.317 108.647 15.9249 109.085 15.6437C109.526 15.3586 110.003 15.216 110.516 15.216C111.355 15.216 112.007 15.4912 112.473 16.0418C112.938 16.5923 113.171 17.3803 113.171 18.4062V18.8636H108.798C108.814 19.4972 108.999 20.0102 109.353 20.4022C109.711 20.7904 110.164 20.9844 110.713 20.9844C111.103 20.9844 111.433 20.9052 111.703 20.7469C111.974 20.5884 112.211 20.3785 112.414 20.1171L113.088 20.6399C112.547 21.4677 111.735 21.8814 110.654 21.8814ZM110.516 16.119C110.071 16.119 109.697 16.2814 109.395 16.6061C109.093 16.927 108.906 17.3785 108.834 17.9606H112.067V17.8774C112.035 17.3189 111.884 16.8873 111.614 16.5823C111.344 16.2734 110.978 16.119 110.516 16.119ZM117.585 21.7627V15.3348H120.103C120.962 15.3348 121.62 15.4853 122.078 15.7863C122.539 16.0834 122.77 16.5209 122.77 17.0992C122.77 17.3963 122.68 17.6656 122.501 17.9072C122.322 18.1447 122.058 18.3269 121.708 18.4537C122.098 18.5448 122.41 18.723 122.644 18.9883C122.883 19.2537 123.002 19.5706 123.002 19.9389C123.002 20.529 122.783 20.9805 122.346 21.2934C121.912 21.6063 121.298 21.7627 120.503 21.7627H117.585ZM118.689 18.9409V20.8775H120.515C120.976 20.8775 121.32 20.7923 121.547 20.6221C121.777 20.4518 121.892 20.2122 121.892 19.9033C121.892 19.2616 121.419 18.9409 120.473 18.9409H118.689ZM118.689 18.0616H120.115C121.149 18.0616 121.666 17.7606 121.666 17.1586C121.666 16.5567 121.177 16.2457 120.199 16.2259H118.689V18.0616Z" fill="white"/>
<path d="M41.0258 29.2013C40.9906 25.3047 44.2304 23.409 44.3786 23.3208C42.5438 20.6573 39.6997 20.2934 38.7003 20.2644C36.3116 20.0141 33.9946 21.6874 32.7778 21.6874C31.5367 21.6874 29.6629 20.2886 27.6435 20.3297C25.0447 20.3696 22.6136 21.8675 21.2802 24.1937C18.5284 28.9366 20.5807 35.9064 23.2171 39.7401C24.5359 41.6189 26.0769 43.7141 28.094 43.6403C30.0673 43.5606 30.8045 42.389 33.1858 42.389C35.5453 42.389 36.2376 43.6403 38.2946 43.5932C40.4125 43.5606 41.7459 41.7072 43.0186 39.8127C44.5425 37.6619 45.1546 35.5413 45.1789 35.4325C45.1303 35.4156 41.067 33.8705 41.0258 29.2013ZM37.1398 17.7425C38.2011 16.421 38.9273 14.6232 38.7257 12.7988C37.1895 12.8665 35.2685 13.8567 34.1622 15.1491C33.1834 16.288 32.309 18.1547 32.5349 19.9101C34.2606 20.0383 36.0323 19.0433 37.1398 17.7425Z" fill="white"/>
<path d="M69.608 43.3696H66.8502L65.3396 38.6436H60.0887L58.6497 43.3696H55.9646L61.1682 27.2801H64.3814L69.608 43.3696ZM64.8842 36.6607L63.518 32.4595C63.3735 32.0303 63.1015 31.0196 62.7032 29.4285H62.6545C62.4943 30.1129 62.238 31.1236 61.8871 32.4595L60.544 36.6607H64.8842ZM82.9637 37.4261C82.9637 39.3991 82.4257 40.9588 81.3486 42.1037C80.3844 43.1229 79.1857 43.6319 77.7564 43.6319C76.213 43.6319 75.103 43.0842 74.429 41.9864V48.0737H71.8401V35.5811C71.8401 34.3419 71.8073 33.0712 71.7441 31.768H74.0211L74.1656 33.6069H74.2141C75.0776 32.2213 76.3878 31.5286 78.1463 31.5286C79.5209 31.5286 80.6685 32.069 81.5866 33.1511C82.5034 34.2356 82.9637 35.6598 82.9637 37.4261ZM80.3261 37.5204C80.3261 36.3912 80.0711 35.4602 79.5586 34.7263C78.9987 33.9635 78.247 33.5815 77.3047 33.5815C76.6659 33.5815 76.0855 33.7943 75.5669 34.2138C75.0472 34.6369 74.7072 35.1895 74.5481 35.8738C74.477 36.1296 74.4367 36.393 74.4278 36.6584V38.594C74.4278 39.4366 74.6877 40.1487 75.2075 40.7315C75.7272 41.3118 76.4024 41.6032 77.2331 41.6032C78.2082 41.6032 78.9672 41.2272 79.5099 40.4812C80.0541 39.7328 80.3261 38.7463 80.3261 37.5204ZM96.3666 37.4261C96.3666 39.3991 95.8287 40.9588 94.7515 42.1037C93.786 43.1229 92.5887 43.6319 91.1582 43.6319C89.6148 43.6319 88.5048 43.0842 87.8308 41.9864V48.0737H85.2418V35.5811C85.2418 34.3419 85.209 33.0712 85.1458 31.768H87.4228L87.5673 33.6069H87.6159C88.4781 32.2213 89.7884 31.5286 91.548 31.5286C92.9215 31.5286 94.069 32.069 94.9896 33.1511C95.9052 34.2356 96.3666 35.6598 96.3666 37.4261ZM93.7278 37.5204C93.7278 36.3912 93.4716 35.4602 92.9591 34.7263C92.3992 33.9635 91.65 33.5815 90.7077 33.5815C90.0689 33.5815 89.4885 33.7943 88.9675 34.2138C88.4477 34.6369 88.1089 35.1895 87.9499 35.8738C87.8709 36.1929 87.8284 36.4528 87.8284 36.6584V38.594C87.8284 39.4366 88.0895 40.1487 88.6068 40.7315C89.1265 41.3106 89.8017 41.6032 90.6348 41.6032C91.6111 41.6032 92.3701 41.2272 92.9117 40.4812C93.4558 39.7328 93.7278 38.7463 93.7278 37.5204ZM111.352 38.8564C111.352 40.2261 110.871 41.3396 109.915 42.1992C108.864 43.1374 107.395 43.6077 105.513 43.6077C103.774 43.6077 102.38 43.274 101.329 42.6054L101.927 40.4571C103.063 41.1268 104.31 41.4605 105.667 41.4605C106.644 41.4605 107.403 41.2405 107.944 40.804C108.487 40.3664 108.762 39.7812 108.762 39.0509C108.762 38.3969 108.535 37.8492 108.089 37.4031C107.641 36.9582 106.9 36.5435 105.859 36.1627C103.03 35.112 101.614 33.5754 101.614 31.5539C101.614 30.2338 102.114 29.1529 103.112 28.3078C104.111 27.464 105.434 27.042 107.081 27.042C108.552 27.042 109.777 27.297 110.749 27.8061L110.1 29.9074C109.184 29.4141 108.151 29.1674 106.995 29.1674C106.082 29.1674 105.365 29.391 104.853 29.836C104.422 30.2338 104.203 30.7185 104.203 31.294C104.203 31.9288 104.452 32.4559 104.947 32.8694C105.377 33.2502 106.162 33.6649 107.296 34.1098C108.688 34.6684 109.71 35.3188 110.365 36.066C111.024 36.8132 111.352 37.7452 111.352 38.8564ZM119.934 33.7024H117.08V39.3351C117.08 40.7678 117.583 41.4823 118.59 41.4823C119.053 41.4823 119.437 41.4436 119.741 41.3626L119.812 43.32C119.302 43.5098 118.63 43.6053 117.798 43.6053C116.777 43.6053 115.977 43.2946 115.4 42.6732C114.826 42.0517 114.537 41.0108 114.537 39.5455V33.6975H112.837V31.7631H114.537V29.6389L117.08 28.8748V31.7631H119.934V33.7024ZM132.785 37.4732C132.785 39.2566 132.272 40.7206 131.25 41.8655C130.179 43.0443 128.756 43.6319 126.981 43.6319C125.27 43.6319 123.908 43.0673 122.893 41.9393C121.878 40.8089 121.37 39.3846 121.37 37.6667C121.37 35.8689 121.895 34.3963 122.941 33.2514C123.988 32.1053 125.4 31.5323 127.174 31.5323C128.884 31.5323 130.257 32.098 131.296 33.2272C132.29 34.3226 132.785 35.7371 132.785 37.4732ZM130.1 37.5324C130.1 36.4697 129.869 35.5582 129.407 34.7953C128.864 33.874 128.087 33.4135 127.08 33.4135C126.043 33.4135 125.248 33.874 124.707 34.7953C124.243 35.5582 124.012 36.4854 124.012 37.5809C124.012 38.6448 124.243 39.5587 124.707 40.3193C125.267 41.2405 126.047 41.7011 127.058 41.7011C128.048 41.7011 128.824 41.2308 129.385 40.2962C129.861 39.5153 130.1 38.5976 130.1 37.5324ZM141.204 34.0348C140.934 33.9864 140.661 33.9626 140.387 33.9635C139.477 33.9635 138.772 34.3045 138.277 34.9911C137.847 35.5957 137.631 36.3598 137.631 37.2822V43.3696H135.042V35.4215C135.044 34.2037 135.019 32.986 134.966 31.7692H137.222L137.316 33.9889H137.387C137.663 33.226 138.093 32.6107 138.682 32.15C139.222 31.7475 139.879 31.5295 140.554 31.5286C140.793 31.5286 141.009 31.5455 141.201 31.5757L141.204 34.0348ZM152.782 37.0199C152.789 37.4116 152.757 37.8032 152.688 38.189H144.921C144.95 39.3351 145.327 40.2129 146.047 40.8173C146.702 41.3565 147.549 41.6274 148.587 41.6274C149.738 41.6274 150.788 41.446 151.731 41.0797L152.136 42.8677C151.033 43.3465 149.731 43.5847 148.23 43.5847C146.423 43.5847 145.004 43.0552 143.973 41.9985C142.942 40.9406 142.427 39.5189 142.427 37.738C142.427 35.9898 142.906 34.5329 143.866 33.3711C144.872 32.1306 146.231 31.5105 147.941 31.5105C149.62 31.5105 150.892 32.1306 151.755 33.3711C152.438 34.354 152.782 35.5727 152.782 37.0199ZM150.313 36.3513C150.332 35.586 150.161 34.9271 149.81 34.3698C149.363 33.6516 148.673 33.2938 147.749 33.2938C146.903 33.2938 146.213 33.6431 145.689 34.3443C145.257 34.9017 145.001 35.5715 144.922 36.3488L150.313 36.3513Z" fill="white"/>
</svg>
