<svg width="151" height="26" viewBox="0 0 151 26" fill="none" xmlns="http://www.w3.org/2000/svg">
<g clip-path="url(#clip0)">
<path fill-rule="evenodd" clip-rule="evenodd" d="M49.3069 3.24002C43.2649 3.24002 38.3659 8.16102 38.3659 14.237C38.3659 20.307 43.2649 25.231 49.3069 25.231C55.3499 25.231 60.2489 20.308 60.2489 14.237C60.2489 8.16102 55.3489 3.24102 49.3069 3.24102V3.24002ZM24.8699 3.23902C23.336 3.23873 21.8257 3.61663 20.4727 4.33928C19.1197 5.06192 17.9657 6.10701 17.1129 7.38202C16.2598 6.10738 15.1057 5.06258 13.7528 4.33998C12.3999 3.61739 10.8897 3.23925 9.35594 3.23902C4.21694 3.23902 0.048939 7.40302 0.00593896 12.557H-6.10352e-05V24.589H3.19794V12.589C3.22594 9.19501 5.96894 6.44902 9.35394 6.44902C12.7549 6.44902 15.5119 9.22202 15.5119 12.639V24.589H18.7119V12.619C18.7219 9.20902 21.4749 6.44902 24.8679 6.44902C28.2639 6.44902 31.0139 9.21002 31.0259 12.619V24.589H34.2239V12.555H34.2209C34.1759 7.40002 30.0079 3.23502 24.8679 3.23502L24.8689 3.23702L24.8699 3.23902ZM73.6729 3.24302C68.5679 3.28102 64.4389 7.42802 64.3949 12.557H64.3909V24.588H67.5909V12.591C67.6179 9.20101 70.3519 6.46102 73.7269 6.45102H73.9099V3.23902H73.6729V3.24302ZM80.2819 11.923C81.2709 8.76802 84.2039 6.47902 87.6719 6.47902C91.1379 6.47902 94.0719 8.76802 95.0599 11.923H80.2799H80.2819ZM87.6719 3.26602C81.6269 3.26602 76.7259 8.18901 76.7259 14.263C76.7259 20.338 81.6259 25.263 87.6719 25.263C91.9119 25.263 95.5819 22.834 97.3979 19.289L94.5999 17.736C93.3299 20.292 90.7059 22.048 87.6709 22.048C83.6209 22.048 80.3019 18.925 79.9589 14.945H93.2729V14.943H98.5809C98.5929 14.715 98.6159 14.492 98.6159 14.263C98.6159 8.18801 93.7149 3.26502 87.6709 3.26502L87.6719 3.26602ZM104.95 20.9C104.682 20.9007 104.418 20.954 104.171 21.057C103.924 21.16 103.7 21.3106 103.511 21.5002C103.322 21.6898 103.173 21.9147 103.071 22.1621C102.969 22.4095 102.917 22.6745 102.918 22.942C102.917 23.2098 102.969 23.4751 103.07 23.7228C103.172 23.9704 103.322 24.1955 103.511 24.385C103.892 24.7677 104.41 24.9835 104.95 24.985C105.353 24.9849 105.747 24.8648 106.082 24.6401C106.417 24.4154 106.678 24.0962 106.831 23.723C106.933 23.475 106.985 23.209 106.984 22.942C106.986 22.5386 106.868 22.1438 106.644 21.8079C106.421 21.472 106.103 21.2102 105.73 21.056C105.483 20.9532 105.218 20.9002 104.95 20.9V20.9ZM116.665 1.52588e-05H113.467V3.21602H110.258V6.24202H113.467V15.186H113.465L113.466 15.216V15.269H113.47C113.514 20.399 117.643 24.546 122.749 24.584V24.588H122.984V21.374H122.802C119.426 21.364 116.691 18.624 116.665 15.235V6.24302H122.984V3.21602H116.665V1.52588e-05V1.52588e-05ZM146.337 3.25702L137.89 20.871L129.441 3.25702L129.38 3.21702H125.849L136.084 24.602H139.695L149.932 3.25702H146.337V3.25702Z" fill="black"/>
</g>
<defs>
<clipPath id="clip0">
<rect width="151" height="26" fill="white"/>
</clipPath>
</defs>
</svg>

