<svg width="104" height="104" viewBox="0 0 104 104" fill="none" xmlns="http://www.w3.org/2000/svg">
<rect x="23.7056" y="3" width="80" height="80" rx="4" transform="rotate(15 23.7056 3)" stroke="#FFE600" stroke-width="6"/>
</svg>

