<svg width="32" height="32" viewBox="0 0 32 32" fill="none" xmlns="http://www.w3.org/2000/svg">
<path d="M25.3333 0H6.66667C2.98533 0 0 2.98533 0 6.66667V25.3333C0 29.0147 2.98533 32 6.66667 32H25.3333C29.016 32 32 29.0147 32 25.3333V6.66667C32 2.98533 29.016 0 25.3333 0ZM25.6667 22.6613H22.8213C21.2147 22.6613 20.9427 21.7453 19.62 20.4227C18.424 19.2267 17.76 20.144 17.788 21.8467C17.796 22.2987 17.5733 22.6613 17.0333 22.6613C15.348 22.6613 12.9267 22.8987 10.476 20.2533C7.96533 17.5427 5.33333 12.1053 5.33333 11.5693C5.33333 11.2533 5.59467 11.1107 6.032 11.1107H8.92533C9.69067 11.1107 9.756 11.4893 9.96933 11.976C10.8587 14.004 12.9893 18.0747 13.556 15.8027C13.8813 14.4987 14.0147 11.476 12.6187 11.216C11.8267 11.0693 13.2213 10.2213 15.2427 10.2213C15.7453 10.2213 16.2907 10.276 16.8493 10.404C17.8747 10.6427 17.8773 11.1013 17.864 11.772C17.812 14.3093 17.5053 16.0173 18.1747 16.448C18.8133 16.8613 20.4933 14.1587 21.3787 12.0733C21.6227 11.496 21.6707 11.1107 22.3573 11.1107H25.896C27.7493 11.1107 25.6533 13.7733 24.052 15.8533C22.7613 17.5267 22.8307 17.56 24.3307 18.952C25.4013 19.944 26.664 21.2987 26.664 22.0667C26.6667 22.4293 26.384 22.6613 25.6667 22.6613Z" fill="#C4C4C4"/>
</svg>
