<svg width="28" height="28" viewBox="0 0 28 28" fill="none" xmlns="http://www.w3.org/2000/svg">
<rect x="3" y="15.793" width="16" height="16" rx="4" transform="rotate(-53.0874 3 15.793)" stroke="white" stroke-width="3"/>
</svg>
